Last
Geven
Pas
Schoon
Stil
Oud
Bil
Even
Bel
Wakker
Het
Wel
Lang
Slag
Kleine
Niezen
Kort
Duim
Hees
Le
Mijnheer
Klep
Bril
Nagel
Boven
Water
Baan
Boeren
Goede
Vallen
Man
Kant
Huis
Rouw
Vader
Patient
Kenmerken
Thor
Plas
Ani
Nader
Dikker
Erin
Breed
Bot
Elders
Vrolijk
Licht
Achten
Andere
Art
Bal
Bank
Bel
Bent
Best
Boek
Bouw
Box
Brandt
Broer
Buiten
Bult
Bos
Bus
Constant
Cor
Dik
Dokter
Donker
Droog
Dwars
Enter
Erna
Fijn
Flink
Glas
Haast
Helder
Herfst
Loop
Loon
Winter
Put
Jongste
Oudste
Kaak
Kennis
Kern
Keus
Klaren
Knop
Kop
Kracht
Kruis
Lange
Linker
Mager
Mensen
Middag
Naalden
Nadien
Niks
Oude
Out
Pak
Plat
Romp
Ronde
Ruiter
Schoen
Schoot
Seb
Sneller
Snel
Spit
Stap
Sterk
Sterker
Stijf
Stoel
Vlak
Vliegen
Vriend
Vrij
Wang
Wijn
Worm
Zaal
Zalm
Zomer
Zuur
Mei
Mol
Bode
Bom
Burg
Heil
Kosten
Stok
Toon
Trouw
Weinig
Tip
Noten
Rol
Taal
Woord
Kuil
Vlek
Maandag
Dinsdag
Woensdag
Donderdag
Vrijdag
Zaterdag
Zondag
Dood
Orth
Zwart
Zwarte
Wit
Witte
Rood
Rode
Oranje
Geel
Gele
Groen
Groene
Blauw
Blauwe
Paars
Paarse
Roze
Bruin
Bruine
Grijs
Grijze
Zilver
Zilveren
Goud
Gouden