Bartholomeus Gasthuis
Blanco woonzorgvoorziening jeugdzorg
Ewoud Gasthuis
Oud burgeren gasthuis
Rijksinrichting voor jeugdigen de hartelborgt
Stg bartholomeus gasthuis
Stg sint pieters en bloklands gasthuis
Stg verpleeg en verzorgingshuis de leystroom
Stg verpleeg- en zorgcentrum lindestede
Stg verpleeghuis bergweide
Stg verpleeghuis het parkhuis
Stg verpleeghuis salem
Stg verpleeghuis zevenaar
Stg verzorgingscentra utingeradeel
Stg verzorgingshuis de koperhorst
Stg woon & zorgcentra de bilt bilthoven de bilthuysen
Stg woon & zorgcentrum herfstzon
Stg woon en zorgcentrum de nieuwpoort
Stg woon en zorgcentrum friso
Stg woon zorg service veendam
Stg woon zorgcentra de rijnhoven
Stg woon zorgcentrum de breedonk
Stg woon zorgcentrum het hoogeheem
Stg woongemeenschap voor ouderen heemzicht
Stg woongroep babajit
Stg woonvoorzien lichamelijk gehandicapten n-h midden
Stg woonvormen verst gehandic betuwe bommelerewaard
Stg woonzorg bellingwedde
Stg woonzorg lojal
Stg woonzorg west zeeuws vlaanderen
Stg woonzorgcentra flevoland
Stg woonzorgcentra iselgouw
Stg woon-zorgcentra noord-nederland
Stg woonzorgcentra zuiderhout
Stg woonzorgcentrum de beyart
Stg zonnehuizen kind en jeugd
Stg zorgcentra betuweland
Stg zorgcentra de betuwe
Stg zorgcentra moerborch
Stg zorgcentra rivierenland
Stg zorgcentrum de annenborch
Stg zorgcentrum de wieken hg
Stg zorgcentrum maria-oord
Stg zorgcentrum oranjehaeve
Stg zorgcentrum st jozef
Stg zorgcentrum voor ouderen
Stichting woonzorg instelling stichting verma
Thomashuis
Thomashuis andel
Thomashuis arum
Thomashuis coevorden
Thomashuis druten
Thomashuis enschede
Thomashuis hellevoetsluis
Thomashuis helmond
Thomashuis lepelstraat
Thomashuis lisse
Thomashuis lochem
Thomashuis maartensdijk
Thomashuis metslawier
Thomashuis nieuwkuijk
Thomashuis olst
Thomashuis ouderkerk aan den ijssel
Thomashuis roodselaar
Thomashuis standdaarbuiten
Thomashuis tiel
Thomashuis venhuizen
Thomashuis vinkenbuurt
Thomashuis zandvoort vof
Verpleeghuis De Biltse Hof
Verpleeghuis hof van sambeek
Verplegings- en verzorgingsin-stellingen r'dam katholieke
Verzorgingshuis duinhage
Verzorgingshuis huize
Verzorgingshuis huize het oosten
Verzorgingshuis Vreeswyk
Villa franca woon- en zorgvoorzieningen voor jeugdigen
Woon en zorgcentrum humanitas
Woon- en zorgcentrum nieuw boschzicht
Woon zorg en dienstencentrum 't dijkhuis
Woondroomzorg bv woongroep eigenwijs
Woonservice complex de noorderkroon
Woonvoorziening het kompas
Woonvorm-latouche
Woonzorg centrum edelweiss
Woonzorgcentra westerkwartier
Woonzorgcentrum dannenborg
Woonzorgcentrum de zeeg
Woonzorgconcern ysselheem
Woonzorgflat brandsen
Woonzorggroep samen
Woonzorgnet bv
WZC Veldhof
Wzv oude haven
Zonnehuizen Kind en Jeugd
Zorgcentra de ronde venen hoofdlocatie + verzorgingshuis zuiderho
Zorgcentrum avondlicht
Zorgcentrum de kooimeer a
Zorgcentrum het hooge heem activiteitenbegeleiding
Zorgcentrum la providenc
Zorgcentrum oldenhaghen
Zorgcentrum oranjehof
Zorgcentrum rehoboth
Zorgcentrum vredewold facilitaire dienst
Zorgcombinatie interzorg afdeling woonzorgcentrum
Zorgcombinatie Noorderboog
Zorghotel hapertse
Zorghotel veghel
Zorghuis de engelenhof
Zorgvilla de ooijman bv
Zorgvilla viken
De Lichtenberch
De Lichtenberg
Polakhuis
zonnenhuis
Triade
AanZien
Abrona
Albert van Koningsbruggen
Amandelboom
Amandelhof
Amaris De Amerhorst
Amerpoort asvz
Another world
Antroposofisch Verpleeghuis
A-part werken met zorg
Arcohove
Artemis
Ascensio zorg
Asvz zuid west
Atlant zorggroep
Avondlicht
Axion Voorhoevehuis
Barthimeushage
Bartholomeus Gasthuis
Bartimeushage
Belvedere residence essenburgh
Belvertshoeve
Beukenstein
Beweging 3.0 locatie st elisabeth
Biltse Hof
Birkhoven
Birkhoven Zorggoed
Blanco woonzorgvoorziening jeugdzorg
Blom Stichting
Bonga
Jan Bonga
Booketorre
Bos- en meerzicht
Boschoord
Bovenwegen
Buitenhof
Bunninchem
Burgemeester van Randwijckhuis
Careyn Zorgcentrum
Catharina stg
Centraal bureau jade zorggroep
Chris Sanatorium 
Christelyke stg voorzieningen ouderen noord nederland svonn
Cicero zorggroep
Circonflex stg voor wonen en zorg
Connecting hands
D.o.r.p. bruining zorg
Daelzicht zuid - cluster swentibold
De Aa
De Akker
De Amandelhof
De Amerpoort
De Batau
De Berk
De betuwehof
De Bijnkershoek
De Biltse Grift
De Blinkert
De Bongerd
De borg stg christelyke zorgvoorzieningen
De Bremhorst
De Bron
de enk
de evenaar
De Geinsche Hof
De gouden leeuw groep bv
De Grienden
De hartenberg
De Heem
De Heijgraeff
De Heygraeff
De Hoogstraat
De Horizon
De karmel woon en dagbesteding
De kasparhoeve
De kleine haven
De Koperhorst
De Koperwiek
De Lichtenberch
De Lichtenberg
De Liendert
De Looborch
De Mirtehof
De Parkgraaf
de passie
De pieter raat stg
De scholtenhof
De Trappenberg
De Viken
De volckaert
De Vuurdoorn
De waerden
De Wartburg
De wever
De Wielewaal
De Wijngaard
De Wiltzangk
De Wyngaard
De zorggroep
Dodoensserre
Dennendal
Dichterbij
Diomage
Domus magnus huis ter weegen
Domus magnus klein engelenburg
Doopsgezind zorgcentrum het mennistenerf
Dreeslaan
Drie Ringen
Driestroomhuis angerlo
Driezorg stg voor wonen zorg en welzijn
Dsv salem
Duynsberg
Elisabeth otter knoll stg
Emergis
Erve remerman
Estinea centraal bureau
European care residence de horst
Ewoud Gasthuis
Exploitatiestg wsterholm/ rikkers-lubbers
Frion gehandicaptenzorg
Gaia zorgdiensten bv
Geinsche Hof
Go4council
Groepswonen dar es salaam
GVT Damhert
GVT De Opbouw
GVT De Reiger
GVT Faros
Haltna
Hartenhoeve vof
Herbergier arnhem het nw
Hervormd gemeentelijke stg zorgcentrum aelsmeer
Hervormde stg bejaardenzorg dewesterkim
Hervormde stg tot verzorging van ouderen
Het Houtens Erf
Het schild centrum voor visueel gehandicapte ouderen
Het thomashuis munein
Hoeve de kaolder
Houtenserf 
Huis de merwede cv
Huize avondrust
Huize dahme
Huize henriella
Huize Het Oosten
Huize marijke
Huize Salvia
Huize Sonneheerdt
Huize statigh
Huize Valkenbosch
Huys ter Swaach
Hvo querido
Ingelanden
Inovum
Instelling voor gesloten jeugdzorg den engh den dolder
Isselwaerde
Jade wonen
Jan Bonga
Jozefzorg
Julia stg agnietenhove
Katholieke stg zorgcentrum saenden
KBO Agnietenhove
Kensoor wonen en dagbesteding
Klein-voorhout
Klooster agnetenberg afdeling
Klooster alverna
Kloosterverzorgingshuis in caritate
Kloosterverzorgingshuizen congregatie zusters van liefde
Krommerijnhof
Kruseman aretz zorgvilla's
Kvh glorieux
Kvh het retraitehuis
Kwintes
Labyrint zorg
Leendert Meeshuis
Leger des heils centra v.wonen zorg en welz.
Libertas leiden locatie rijn en vliet
Lisiduinahof
Maatman zorggroep
Malderburch centrum voor welzyn wonen en zorg
Maria Dommer
Maria dommer stg
Mariaoord
Marienstein
Merenhoef
Mgr. blomstichting verzorgingshuis klooster sint jozef barchman
Mi sana bv
Mob
Mosae zorggroep
Nassau Odijckhof
Nedereind
Nijenstede
Nijevelt
Nimmerdor staete
Nncz locatie woon-zorgcentrum beatrix
Noord nederlandse cooperatie vzorginstellingen
Noorderhoeve
Nova zembla zorg b.v.
Nswac centraal bureau
Olmenes
Ons tweede thuis
Oud burgeren gasthuis
Ouderencentrum beek en bos
Ouderenzorg 't boerenerf
Paardenmelkerij-zorgboerderij fam. van der burgt
Particuliere woonzorgvoorziening
Passerel stichting de
Petrus Werthweyn
Philadelphia Zorg 
Philadelphia zorg de mast
Pieter van foreest zorginstellingen
Prinsen-stichting
Privazorg eemland
Prot chr stg v ouderenzrg woon-zorgcentrum de vriezenhof
Prot chr stg voor zorgverlening het baken
Prot interkerkelijke st huis ter leede
Quarijn
R k zorgcentrum roomburgh
R.k. stichting zorgcentra meerlanden
Raphaelstg
Reactiveringscentrum 't gooi
Regionale stichting zorgcentra de kempe
Rehoboth
Reinaerde
Residence hooghe rhyndyk
Residentie buitenzorg
Respect
Rijksinrichting voor jeugdigen de hartelborgt
Rondomzorg
Rosendael
S Heeren Loo 
Sabu Huis
Samenzorg Diensten
Scilla andante
Sdw
Sherpa
Siloah stg gehandicaptenzorg gereformeerde gemeenten
Snavelenburg
Sonneburgh verpleeghuis
Sonneheerdt
Sparrenheide
St chr zorg en wooncentra noord veluwe loc brinkhoven
St Warande
St zorgcentrum talma urk
St zorgfederatie oldenzaal
St. de pinnenburg woonvoorziening voor verstandelijk gehandicapt
St. Pieters en Blokland
St. wonen en zorg locatie de tien gemeenten
St.jonkerszorg
St.zorgcentra zuid-west drenthe
Stg activite
Stg alerimus
Stg amaliazorg
Stg amarant
Stg amsta
Stg antroz
Stg arduin
Stg arienszorgpalet
Stg attent wonen welzijn zorg
Stg aveleyn sdt
Stg axioncontinu groep
Stg azora
Stg bartholomeus gasthuis
Stg bej zorg zusters domincanessen van voorschoten
Stg bejaardenzorg de keerderberg
Stg bejaardenzorg lazaristen en dochters der liefde
Stg brentano amstelveen
Stg bruggerbosch
Stg camphillgemeenschap maartenhuis
Stg careaz
Stg catharina
Stg causa nostrae laetitiae
Stg cello
Stg chr verpleeghuis norschoten
Stg christophorus
Stg coloriet
Stg daelzicht
Stg dagbesteding it aventoer
Stg de baander
Stg de binnenvest
Stg de goede zorg
Stg de haardstee
Stg de hartekamp groep
Stg de leite
Stg de lichtenvoorde
Stg de merwelanden
Stg de riethorst stromenland
Stg de rozelaar
Stg de schakel community care
Stg de stouwe
Stg de stromen
Stg de twentse zorgcentra voormensen
Stg de vitalis zorg groep
Stg de wyngaerd
Stg de zorgboog
Stg de zorgcirkel
Stg den oostenborgh
Stg diafaan
Stg epilepsie instellingen nederland
Stg philadelfia zorgverlening
Stg fledderushoeve
Stg flevohuis
Stg fokus exploitatie
Stg gereformeerde zorg woonv0orz accolade zorg groep
Stg herman frantsenhuizen
Stg hervormd centrum pennemes
Stg het gors
Stg hillegomse organisatie vanzorgverlening aan ouderen
Stg hilverzorg
Stg huisvesting ouderen westerbork
Stg humanitas
Stg humnaitas-dmh
Stg ijsselmonde-oost
Stg ilmarinen
Stg insula dei huize kohlmann
Stg interzorg noord nederland
Stg ittmanshof
Stg j a b c
Stg johannahuis
Stg kio kind in ontwikkeling
Stg leefgemeenschap de gouden zon
Stg leekerweide
Stg livio
Stg lunet zorg
Stg maasduinen
Stg maria oord hg
Stg marienstaete
Stg markenheem centra voor zorg en dienstverlening
Stg mediomare
Stg novizorg
Stg oosterlengte
Stg oranje nassau's oord
Stg osiragroep
Stg ouderenzorg kanaalzone
Stg ouderenzorg oudewater
Stg palet verzorgingshuis de hofwijck
Stg parc spelderholt
Stg pepijn en paulus
Stg philadelphia zorg
Stg pleeg maat zorg boerderyen
Stg pleyade
Stg prot chr woon zorgcentrum rustoord
Stg proteion
Stg protestant christelijk zorgcentrum 't anker
Stg protestante zorggroep crabbehoff
Stg protestants christelijk zorgcentrum de riederborgh
Stg protestants christelijk zorgcentrum t slot
Stg protestants christelijke zorggroep rijnmond
Stg quarijn
Stg raffy b
Stg reinaerde
Stg ribw zaanstreek waterland en west-friesland
Stg rosengaerde
Stg ruitersbos
Stg s&l zorg
Stg samen zorgen de hg
Stg sevagram zorgcentra
Stg severinus
Stg shbu-zorgcentra
Stg shdh
Stg sherpa
Stg sint anna
Stg sint jacob
Stg sint jozefoord
Stg sint pieters en bloklands gasthuis
Stg sjaloom zorg
Stg sprank
Stg st annaklooster
Stg st elisabeth
Stg sutfene
Stg topaz
Stg tot oprichting en instandhouding bejaardenoorden en verz
Stg v.regionale zorgverlening svrz
Stg valkenhof
Stg vanboeijen
Stg verpleeg en verzorgingshuis de leystroom
Stg verpleeg- en zorgcentrum lindestede
Stg verpleeghuis bergweide
Stg verpleeghuis het parkhuis
Stg verpleeghuis salem
Stg verpleeghuis zevenaar
Stg verzorgen van verstandel gehandicapten de schutse
Stg verzorging st franciscus
Stg verzorgingscentra utingeradeel
Stg verzorgingshuis de koperhorst
Stg vivantes zorggroep
Stg vivium
Stg voor bejaardenzorg ludgerus
Stg vredewold
Stg vreedenhoff
Stg vrijwaard
Stg vughterstede
Stg w&p/zeeuwse gronden
Stg waardeburgh
Stg wassenaarse zorgverlening
Stg werkt voor ouderen
Stg wilco communiceren limburg
Stg woon & zorgcentra de bilt bilthoven de bilthuysen
Stg woon & zorgcentrum herfstzon
Stg woon en zorgcentrum de nieuwpoort
Stg woon en zorgcentrum friso
Stg woon zorg service veendam
Stg woon zorgcentra de rijnhoven
Stg woon zorgcentrum de breedonk
Stg woon zorgcentrum het hoogeheem
Stg woongemeenschap voor ouderen heemzicht
Stg woongroep babajit
Stg woonvoorzien lichamelijk gehandicapten n-h midden
Stg woonvormen verst gehandic betuwe bommelerewaard
Stg woonzorg bellingwedde
Stg woonzorg lojal
Stg woonzorg west zeeuws vlaanderen
Stg woonzorgcentra flevoland
Stg woonzorgcentra iselgouw
Stg woon-zorgcentra noord-nederland
Stg woonzorgcentra zuiderhout
Stg woonzorgcentrum de beyart
Stg zonnehuizen kind en jeugd
Stg zorg voor ouderen maasland
Stg zorgaccent
Stg zorgbalans
Stg zorgboerdery buitengewoon
Stg zorgcentra betuweland
Stg zorgcentra de betuwe
Stg zorgcentra moerborch
Stg zorgcentra rivierenland
Stg zorgcentrum de annenborch
Stg zorgcentrum de wieken hg
Stg zorgcentrum maria-oord
Stg zorgcentrum oranjehaeve
Stg zorgcentrum st jozef
Stg zorgcentrum voor ouderen
Stg zorgcombinatie marga klompe
Stg zorgcombinatie nieuwe maas
Stg zorgcombinatie noorderboog
Stg zorggroep drenthe
Stg zorggroep ena
Stg zorggroep hof en hiem
Stg zorggroep noordwest veluwe
Stg zorggroep oude en nieuwe land
Stg zorggroep raalte
Stg zorggroep tellens
Stg zorggroep zuid gelderland
Stg zorgorganisatie het hoge veer hg
Stg zorgspectrum
Stg zorgspectrum het zand
Stg zorgverlening van de gereformeerd gemeenten zeeland
Stg zorgvoorzienning bloemendael
Stg zozijn zorg
Stg zuidoostzorg
Stg zuidwester
Stichting boerderij ophovenerhof
Stichting carinova
Stichting corridor dienstverlening
Stichting de ark locatie de waterput
Stichting de peelbloem
Stichting de tinne
Stichting de trans
Stichting droomkinderen
Stichting groenhuysen
Stichting het mosterdzaad
Stichting kloosterverzorgingshuis zusters onder de bogen
Stichting kwecoo
Stichting maatschappij zandbergen
Stichting nieuw vredeveld
Stichting phusis
Stichting sensis de vlasborch
Stichting stichtse warande
Stichting valkenhof
Stichting vughterstede loc. huiz
Stichting woon en werkhuis rotterdam
Stichting woonzorg instelling stichting verma
Stichting zonnehuizen
Stichting zorg op maat
Stichting zorggroep elde
Stichting zorggroep oldael
Stichting zorginstellingen talma borgh
't heem
't Huis aan de Vecht
't Oude Landt
't zuider stee
Talant zorg en ondersteuning
Thomashuis
Thomashuis andel
Thomashuis arum
Thomashuis coevorden
Thomashuis druten
Thomashuis enschede
Thomashuis hellevoetsluis
Thomashuis helmond
Thomashuis lepelstraat
Thomashuis lisse
Thomashuis lochem
Thomashuis maartensdijk
Thomashuis metslawier
Thomashuis nieuwkuijk
Thomashuis olst
Thomashuis ouderkerk aan den ijssel
Thomashuis roodselaar
Thomashuis standdaarbuiten
Thomashuis tiel
Thomashuis venhuizen
Thomashuis vinkenbuurt
Thomashuis zandvoort vof
Transvaal
Transwijk
Trivalent locatie immanuel
Triviummeulenbeltzorg
Verpleeghuis De Biltse Hof
Verpleeghuis hof van sambeek
Verplegings- en verzorgingsin-stellingen r'dam katholieke
Verzorgingshuis duinhage
Verzorgingshuis huize
Verzorgingshuis huize het oosten
Verzorgingshuis Vreeswyk
Via reva revalidatiegeneeskunde
Viken
Villa franca woon- en zorgvoorzieningen voor jeugdigen
Villa Hooghe Heide
Voorhoeve
Warande
Weddesteijn
Weddesteyn
Welman zorggroep
Woon en zorgcentrum humanitas
Woon- en zorgcentrum nieuw boschzicht
Woon zorg en dienstencentrum 't dijkhuis
Woondroomzorg bv woongroep eigenwijs
Woonservice complex de noorderkroon
Woonvoorziening het kompas
Woonvorm-latouche
Woonzorg centrum edelweiss
Woonzorgcentra westerkwartier
Woonzorgcentrum dannenborg
Woonzorgcentrum de zeeg
Woonzorgconcern ysselheem
Woonzorgflat brandsen
Woonzorggroep samen
Woonzorgnet bv
WZC Veldhof
Wzv oude haven
Wzv voor ouderen villa roderlo
Zonneburg
Zonnehuis
Zonnehuisgroep amstelland
Zonnehuizen 
Zonnehuizen Kind en Jeugd
Zonnehuizen Veldheim
Zorg groep noord
Zorg wooncentrum den bouw
Zorgcentra de ronde venen hoofdlocatie + verzorgingshuis zuiderho
Zorgcentrum avondlicht
Zorgcentrum de kooimeer a
Zorgcentrum het hooge heem activiteitenbegeleiding
Zorgcentrum la providenc
Zorgcentrum oldenhaghen
Zorgcentrum oranjehof
Zorgcentrum rehoboth
Zorgcentrum vredewold facilitaire dienst
Zorgcombinatie interzorg afdeling woonzorgcentrum
Zorgcombinatie Noorderboog
Zorgcombinatie zwolle
Zorgcontact locatie huis in de duinen
Zorggroep apeldoorn en omstreken
Zorggroep groningen
Zorggroep groningenverpl.huis innersdijk
Zorggroep manna
Zorggroep noord-limburg
Zorggroep reinalda
Zorggroep tangenborgh
Zorggroep tellus locatie de lichtboei
Zorggroep ter weel
Zorggroep vitez
Zorghotel hapertse
Zorghotel veghel
Zorghuis de engelenhof
Zorgokee vof
ZorgSaam Zeeuws Vlaanderen
Zorgstal
Zorgtuinderij het groene erf
Zorgvilla de ooijman bv
Zorgvilla viken
Zuster floor de ehze vof
Zuylenstede



