﻿Yasmin
0
A
Aad
Aafje
aafje
Aafje
Aafke
Aagje
aagje
Aagtje
Aalbert
Aaldert
Aaldrik
Aaliyah
Aalt
Aaltje
aaltje
Aaltje
Aaltjen
Aaltsje
Aantje
Aarnoud
Aarnout
Aaron
Aart
aart
Aarti
Aartie
Aart-Jan
Aartje
Aaya
Abbas
Abbey
Abby
Abbygail
Abd
Abdalla
Abdallah
Abdel
Abdelali
Abdelaziz
Abdelfattah
Abdelghafour
Abdelghani
Abdelhadi
Abdelhafid
Abdelhak
Abdelhakim
Abdelhalim
Abdelhamid
Abdelilah
Abdeljalil
Abdelkader
Abdelkarim
Abdelkhalek
Abdellah
Abdellatif
Abdelmajid
Abdelmalek
Abdelmalik
Abdelmounaim
Abdelouahab
Abdelouahed
Abdelouahid
Abdelrahman
Abdelwahed
Abdennour
Abderrahim
Abderrahman
Abderrahmane
Abderrazak
Abdeslam
Abdessalam
Abdessamad
Abdi
Abdiaziz
Abdifatah
Abdinasir
Abdirahman
Abdirizak
Abdoel
Abdou
Abdoullah
Abdul
Abdulahi
Abdulkadir
Abdulkerim
Abdullah
Abdullahi
Abdulrahman
Abdurahman
Abdurrahman
Abe
Abel
abel
Abel
Abid
Abida
Abigael
Abigail
Abir
Aboubakr
abraham
Abraham
Abram
Abubakar
Abygail
Acelya
Achmed
Achraf
Ad
Ada
Adaja
adam
Adam
Adel
Adela
Adelheid
Adelina
Adeline
Adem
Aden
Adham
Adi
Adib
Adil
Adilson
Adina
Adinda
Adis
Adisa
Aditya
Adjai
Admir
Adna
Adnan
Adnane
Adne
Adolf
adolf
Adolf
Adri
Adriaan
adriaan
adriaantje
Adriaantje
Adrian
Adriana
adriana
Adriana
Adriane
Adrianne
Adriano
adrianus
Adrianus
Adrie
Adrienne
Aemilius
Aernout
Afaf
Afke
Afra
Agata
Agatha
agatha
Agathe
Age
Agnes
agnes
Agneta
Agnetha
Agnieszka
Agnita
Ahalam
Ahlam
Ahmad
ahmed
Ahmed
Ahmet
Ahsen
Ai
Aicha
Aida
Aidan
Aiden
aiden
Aike
Aiko
Aileen
Aimad
Aiman
Aimane
Aimee
aimee
Aimee
aimée
Aimée
Aimen
Aimy
Ainhoa
Aisa
Aischa
Aisha
Aisling
Aislinn
Aissa
Aissam
Aize
Ajay
Ajdin
Ajla
Akaash
Akash
Akif
Akin
Akira
Akke
Akkelien
Akn
Akram
Akshay
Al
Alaa
Alae-Eddine
Alain
Alan
Alana
Alanis
Alannah
Alara
Alba
Alban
Albartus
Alberdina
alberdina
Albert
albert
Albert
Alberta
alberta
Albertha
Albertien
Albertina
Albertine
Albert-Jan
Albertje
Alberto
Albertus
albertus
Albin
Albina
Alco
Aldert
Aldin
Aldo
Ale
Alec
Aleid
aleida
Aleida
Alejandra
Alejandro
Alek
Aleksandar
Aleksander
Aleksandra
Alem
Alen
Alena
Alessa
Alessandra
Alessandro
Alessia
Alessio
Alet
Aletta
Alette
Alev
Alex
Alexa
Alexander
alexander
Alexander
Alexandra
alexandra
Alexandra
Alexandre
Alexandro
Alexandros
Alexandru
Alexia
Alexis
aleyna
Aleyna
Alfons
Alfonso
alfred
Alfred
Alfredo
ali
Ali
Alia
Alianne
Alican
Alice
Alicia
Alicja
Alida
alida
Alide
Alie
Alieke
Alien
Aliene
Alies
Alihan
Alijda
Alina
Alinda
Alinde
Aline
Alisa
Alischa
Alise
Alisha
Alisia
Alison
Alissa
Alissia
Alistair
Alix
Aliya
Aliyah
Aliye
Aliza
Alize
Alja
Alje
Alkan
Allal
Allan
Allard
Alle
Allegonda
Allert
Allisha
Allison
Allon
Allysha
Allyssa
Alma
Almar
Almedina
Almer
Almina
Almir
Almira
Alon
Aloys
Aloysius
Alp
Alparslan
Alpay
Alper
Alperen
Alpha
Alphons
Alphonsus
alphonsus
Alrik
Altan
Alvaro
Alvin
Alwin
Aly
Alycia
Alysa
Alysha
Alyshia
Alysia
Alyssa
Alyssia
Amaal
Amadou
amal
Amal
Amalia
Aman
Amanda
amanda
Amando
Amani
Amar
Amara
Amarens
Amarins
Amaya
Amber
amber
Ambra
Ame
Amel
Amela
Amelia
Amelie
Amélie
amélie
Amely
Amer
Amerik
Amerins
Amie
Amier
Amiet
Amila
Amin
amin
Amin
amina
Amina
Aminata
amine
Amine
amir
Amir
Amira
amira
Amira
Amisha
Amit
Amke
Ammar
Amna
Amon
Amos
Amr
Amra
Amresh
Amrish
Amrit
Amrita
Amro
amy
Amy
An
Ana
Anabel
Anahita
Anais
Anam
Anand
Ananda
Anandi
Anas
anass
Anass
Anastacia
Anastasia
Anastasija
Ancilla
Anco
Anders
Anderson
Andor
Andra
Andre
andre
Andre
andré
André
andrea
Andrea
andreas
Andreas
Andrei
Andreia
Andrej
Andres
Andrew
Andries
andries
Andries
Andro
Andy
Ane
Anel
Anela
Anemoon
Anes
Anette
Angel
angela
Angela
Angele
Angelica
Angelie
Angeliek
Angelien
Angelika
Angelina
Angeline
Angelino
Angelique
angelique
Angelle
Angelo
angelo
Angelo
Angelos
Angenita
Angie
Angus
Anh
Anica
Aniek
Anieke
Aniel
Anika
Anil
Anina
Anine
Anique
Anis
Anisa
Anish
Anisha
Anissa
Anita
anita
anja
Anja
Anjali
Anjana
Anjani
Anje
Anjo
Anjuli
Ank
Anka
Anke
Ankie
Ankje
Anko
Anky
Anl
Ann
Anna
anna
Anna
Annabel
Annabella
Annabelle
Annalisa
Anna-Louise
Annamaria
Anna-Maria
Annamarie
Anna-Marie
Anna-Sophie
Anne
anne
Anne
Annebel
Annebelle
Annebeth
Anne-Britt
Annechien
Anne-Claire
Annefleur
Anne-Fleur
Annefloor
Anne-Floor
Annegien
Annegreet
Anne-Jan
Annejet
Anne-Jet
Anneke
anneke
Anneleen
Annelein
Anneli
Annelie
Annelieke
Annelien
annelies
Annelies
Annelijn
Annelin
Annelinde
Anne-Linde
Anneline
Annelise
Anneloes
Anne-Loes
Annelore
Annelot
Annelotte
Anne-Lotte
Annelou
Anne-Louise
Annelous
Annely
Anne-Lynn
Annemaria
Anne-Maria
Annemarie
annemarie
Annemarie
Anne-Marie
Annemarieke
Anne-Marieke
Annemarije
Anne-Marije
Annemarijn
Anne-Marijn
Annemay
Anne-May
Annemie
Annemiek
annemieke
Annemieke
Anne-Mieke
Annemijn
Annemoon
Annerie
Annerieke
Anneroos
Anne-Roos
Anne-Ruth
Anne-Sophie
Annet
Annetje
Annetta
annette
Annette
Annewil
Anne-Wil
Annick
Annicka
annie
Annie
Annieck
Anniek
Annieke
annigje
Annigje
Annika
Anniko
Annique
Annisa
Anno
Annoeska
Annouk
Anny
Anoek
Anoeshka
Anoeska
anouar
Anouar
Anouchka
Anouck
anouk
Anouk
Anouschka
Anoushka
Anouska
Ans
Antal
Anthe
Anthea
Anthon
anthonia
Anthonia
Anthonie
anthonie
anthonius
Anthonius
Anthony
Antje
antje
Antoine
Antoinet
Antoinetta
Antoinette
antoinette
Antoinette
Anton
anton
Anton
Antonetta
antonetta
Antonetta
Antonette
Antoni
Antonia
antonia
Antonie
antonie
Antonio
antonius
Antonius
Antony
Antoon
antoon
Antoon
Antsje
Antwan
Anuradha
Anuschka
Anusha
Anushka
Anuska
Anwar
Anya
Aoife
Aouatif
Apollonia
Apolonia
April
Ara
Arabella
Aradhana
Aradhna
Aram
Aran
Aranka
Arantxa
Aras
Arash
Archana
Arco
Ard
Arda
Ardian
Ardina
Areke
Aren
Arend
arend
Arend
Arenda
Arendina
Arend-Jan
Arendje
Arent
Arentje
Ari
Aria
Ariaantje
Ariadne
Arian
Ariana
Ariane
Arianna
Arianne
Arie
arie
Arie
Arief
Arie-Jan
Arieke
Arielle
Arien
Ariena
Arienne
Ariette
Arif
Arife
Arigje
Arij
Arina
Arinda
Aris
Arja
Arjan
arjan
Arjan
Arjanne
Arjen
arjen
Arjen
Arjo
Arjun
Arjuna
Arlene
Arlette
Armaan
Arman
Armand
Armanda
Armando
Armano
Armen
Armin
Arnaud
Arne
Arnela
Arno
arnold
Arnold
Arnolda
Arnoldina
Arnoldus
arnoldus
Arnoldus
Arnoud
Arnout
Aron
Arris
Arsalan
Arsen
Arsenio
Arshad
Arslan
Arthur
arthur
Arthur
Arti
Artie
Artje
Artur
Arun
Aruna
Arvid
Arvin
Arvind
Arwa
Arwen
Arwin
Ary
Arya
Aryan
Arzu
Asad
Aschwin
Asena
Asha
Ashana
Ashanti
Ashanty
Asher
Ashish
Ashkan
ashley
Ashley
Ashly
Ashna
Ashni
Ashraf
Ashton
Ashvin
Ashwan
Ashwien
Ashwin
Asia
Asif
Asim
Asiya
Asiye
Asja
Asl
Aslan
Aslhan
Asli
Aslihan
asma
Asma
Asmaa
Asmae
Asmara
Assia
Aster
Astrando
astrid
Astrid
Asude
Asuman
Aswin
Asya
Atakan
Ate
Athanasios
Athina
Atie
Atif
Atika
Atilla
Atje
Attila
Atze
Audrey
Audry
August
august
August
Augusta
Augustijn
Augustina
Augustinus
Auke
Aukje
Aura
Aurelia
Aurelie
Aurora
Austin
Ava
Avalon
Avinash
Aviva
Avni
Awa
Awinash
Axel
Axelle
Axl
Aya
aya
Ayaan
Ayah
Ayan
Ayana
Aybike
Ayca
Aycan
Ayda
Aydan
Ayden
Aydin
Ayesha
Ayfer
Aygul
Ayhan
Aykut
Ayla
Ayleen
Aylin
Ayman
Aymane
Aymen
Aynur
Ayoub
ayoub
Ayrton
Ayse
Aysegul
Aysel
Aysen
Aysenur
Aysha
Aysu
Aysun
Aytac
Ayten
Ayub
Ayuub
Ayyoub
Azad
Azeddine
Aziz
Aziza
Azize
Azra
Azzeddine
Babak
Babet
Babeth
Babette
Babiche
Babs
Bachir
Bader
Badia
Badr
Badreddine
Badria
Baer
Bahadir
Bahar
Bahattin
Bahri
Bailey
Baki
Balder
Balou
Banu
Baran
barbara
Barbara
Barbera
Bareld
barend
Barend
Barendina
barendina
Barendina
Baris
Barrie
barry
Barry
Bars
Bart
bart
Bartel
Barteld
Bartele
Bartha
Barthelomeus
Barthold
bartholomeus
Bartholomeus
Bartjan
Bart-Jan
Bartje
Bartosz
Bartus
Baruch
Bas
bas
Basak
Bashir
Basil
Basma
Basten
Bastiaan
bastiaan
Bastiaantje
Bastian
Bastiana
Bastien
Bastijn
Battal
Batuhan
Bauke
Baukje
Bayram
Bea
Beate
Beatrice
Beatrijs
Beatrix
Beatriz
Beau
Beaudine
Bedia
Bedirhan
Beer
beer
Beerd
Beert
Beertje
Begum
Beitske
Bekir
Belal
Belgin
Belia
belinda
Belinda
Bella
Belle
Belma
Ben
Benedict
Benedicte
Benedictus
Bengt
Benice
Benita
Benito
benjamin
Benjamin
Benji
Benne
Bennet
Bennie
Benno
Benny
Benoit
Bente
bente
Bente
Benthe
benthe
Bento
Berat
Berbel
Berber
Berdan
Berdien
Berdina
Berdine
berend
Berend
Berendina
berendina
Berend-Jan
Berendje
Berfin
Berit
Berivan
Berjan
Berk
Berkan
Berkant
Berkay
Berke
Berna
Bernadet
Bernadette
bernadette
Bernadina
Bernadine
Bernard
bernard
Bernarda
Bernardina
bernardina
Bernardo
bernardus
Bernardus
Bernd
Bernhard
Bernice
Bernie
Bernou
Berra
Berrie
Berry
Bert
Bertha
bertha
Berthe
Bertil
Bertina
Bertine
Bertjan
Bert-Jan
Bertram
Bertus
bertus
Beryl
Bessel
Bethany
Betsy
Bette
Bettie
Bettina
Bettine
Betty
Betul
Beverly
Beyonce
Beytullah
beyza
Beyza
Beyzanur
bianca
Bianca
Bibi
Bibian
Bibiana
Bibiane
Bibianne
Bibiche
Bieke
Bijou
Biko
Bilaal
Bilal
bilal
Bilal
Bilel
Bilge
Bill
Billal
Billie
Billy
Binc
Binck
Bing
Bink
Binne
Bionda
Bircan
Birgit
Birgitta
Birgitte
Birgul
Birkan
Birol
Birsen
Birte
Birthe
Bjarn
Bjarne
bjorn
Bjorn
björn
Björn
Bjrn
Blanca
Blanche
Blessing
Bloem
Bloeme
Bo
bo
Bo
Boas
Boaz
boaz
Boaz
Bob
bob
Bob
Boban
Bobbi
Bobbie
Bobby
Bodhi
Bodi
Bodie
Bodien
Bodil
Bodine
Boele
Boet
Bogdan
Boi
Bojan
Bojana
Bojoura
Bonita
Bonne
Bonnie
Bonno
Bonny
Bono
Bor
Bora
Boran
Boris
boris
Boris
Borre
Bosse
Bote
Boubker
Bouchra
Boudewijn
Bouke
Boukje
Boutaina
Bouwe
Bouwina
Bowe
Bowen
Bowie
Bowien
Bowy
Boy
Boyan
Boyd
Boye
Boyke
Brad
Bradley
Bradly
Brady
Brahim
Brain
Bram
bram
Bram
Branco
Brand
Brando
Brandon
Brandy
Branko
Brayen
Brayn
Brechje
Brecht
Brechtje
Bregje
Bregtje
Brend
Brenda
brenda
Brenda
Brendan
Brendon
Brenna
Brennan
Brent
Brett
Breunis
brian
Brian
Brianna
Brianne
Bridget
Brigit
Brigitta
Brigitte
brigitte
Brigitte
Brit
Britney
britney
Britney
Britt
britt
Britta
Brittany
Britte
Brittney
Brooklyn
Bruce
Bruna
Bruno
Bryan
bryan
Bryant
Bryce
Btissam
Btissame
Buck
Buddy
Bugra
Buis
Buket
Bulent
Bunyamin
burak
Burak
Burcin
Burcu
Burhan
Buse
Bushra
Busra
Byron
Cacharel
Caecilia
Caesar
Cafer
Cagdas
Cagla
Caglar
Cagri
Caia
Cailey
Cain
Caine
Caithlin
Caithlyn
Caitlin
Caitlyn
Caitlynn
Caja
Caleb
Calista
Callista
Callum
Calum
Calvin
Cameron
Camiel
Camila
Camilla
Camille
Camilo
Can
Canan
Candice
Candy
Caner
Cansel
Cansu
Cara
carel
Carel
Caren
Caressa
Carianne
Carice
Carien
Carin
Carina
Carine
Carissa
Carl
carl
Carl
carla
Carla
Carleen
Carli
Carlien
Carlijn
Carlijne
Carlin
Carlina
Carline
Carlito
Carlo
Carlos
Carlotta
Carly
Carlyn
Carmel
Carmela
carmen
Carmen
Caro
Carol
Carola
Carole
Carolien
Caroliene
Carolijn
carolina
Carolina
caroline
Caroline
Carolus
Carolyn
Carry
Cars
Carst
Carsten
cas
Cas
Casandra
Casey
Casimir
Caspar
Casparus
Casper
casper
Cassandra
Cassidy
Catalina
Catarina
Catelijne
Caterina
Cathalijne
Cathalina
Catharina
catharina
Catharina
Catharine
Catharinus
Cathelijn
Cathelijne
Catherina
Catherine
Cathleen
Cathy
Cato
cato
Catrinus
Caya
Cebrail
Ceciel
Cecil
Cecile
Cecilia
cecilia
Cedric
Cees
cees
Cees
Celal
Celena
Celesta
Celeste
Celia
Celil
Celina
Celine
Cem
Cemal
Cemil
Cemile
Cemre
Cengiz
Cengizhan
Cenk
Cennet
Ceren
Ceriel
Cerise
Cesar
Ceyda
Ceyhun
Ceylan
Ceylin
Cezanne
Chabeli
Chad
Chadi
Chadia
Chafik
Chahid
Chahida
Chahira
Chahrazad
Chaim
Chaima
chaima
Chaimaa
Chaimae
Chaira
Chaja
Chakib
Chakir
Chakira
Chaline
Chama
Chamilla
Chana
Chandeni
Chandenie
Chandni
Chandra
Chanel
Chanell
Chanella
Chanelle
Chanelva
Chanice
Chanika
Chanine
Chanique
Channa
Channah
Chanou
Chantal
chantal
Chantall
Chantalle
Chante
Chantelle
Charaf
Charafeddine
Charel
Charell
Charella
Charelle
Charif
Charifa
Charina
Charis
Charisa
Charise
Charisma
Charissa
Charisse
Charita
Charity
Charl
Charlaine
Charleen
Charlene
Charles
charles
Charles
Charley
Charlie
Charline
Charlize
Charlot
charlotte
Charlotte
Charly
Charmain
Charmaine
Charmayne
Charon
Charona
Chavelli
Chavelly
Chavez
Chaya
Chayen
Chayenna
Chayenne
Chaymae
Che
Chee
Chelly
Chelsea
Chelsey
Chelsy
Chemene
Chen
Chendo
Cheng
Chenna
Chenoa
Cher
Cheraine
Cherell
Cherelle
Cherida
Cherilyn
Cherina
Cherinda
Cherine
Cherique
Cherise
Cherish
Cherissa
Chermaine
Cherrel
Cherrelle
Cherry
Cherryl
Cheryl
Cheryll
Chesney
Chesron
Chester
Cheverny
Chevy
Cheyenna
Cheyenne
Chi
chiara
Chiara
Chico
Chiel
Chiem
Chimene
Ching
Chinook
Chinouk
Chirine
Chiron
Chislaine
Chloe
chloe
Chloe
Chloé
chloé
Choukri
Chris
Chrisje
Chrissie
Chrissy
Christ
Christa
Christal
Christan
Christel
Christelle
Christi
Christiaan
christiaan
Christiaan
Christian
christian
Christiana
Christiane
Christianne
Christiano
christianus
Christianus
Christie
Christien
Christiena
Christina
christina
Christine
Christinus
Christof
Christoffel
Christoffer
Christoph
Christophe
Christopher
Christos
Christy
Chrystal
Chrystel
Chuck
Chun
Chung
Chyenne
Cian
Ciara
Ciaran
Cigdem
Cihad
Cihan
Cihangir
Cihat
Cilia
Cilla
Cindel
Cinderella
Cindy
cindy
Cindy
Cinthia
Ciro
Cis
Ciska
Ciske
Cissy
Claartje
Clair
Claire
Clara
clara
Clara
Clare
Clarence
Clarice
Clarissa
Clarisse
Clark
Clasina
clasina
Claudette
Claudia
claudia
Claudine
Claudio
Claudy
Clay
Clayton
Clazina
Clemens
Clement
Clementine
Clenn
Cleo
Cliff
Clifford
Clifton
Clim
Clint
Clinton
Cloe
Clyde
Coby
Coco
Cody
Coen
Coenraad
coenraad
Coenradus
Coert
Colette
Colin
Colinda
Colleen
Collin
Conchita
Cong
Conner
Connie
Connor
Conny
Conor
Conrad
Conradus
Constance
Constantijn
Constantinus
Consuela
Coosje
Cora
Coralie
Corbin
Corianne
Corien
Corina
Corinda
Corine
Corinna
Corinne
Corne
Cornee
Corneel
Cornel
cornelia
Cornelia
Cornelie
Cornelieke
cornelis
Cornelis
cornelius
Cornelius
Cornelus
corrie
Corrie
Corrine
Corry
Corstiaan
Corwin
Coskun
Courtney
Couturier
Craig
Crijn
Cris
Crispijn
Crissy
Crista
Cristel
Cristiaan
Cristian
Cristiano
Cristina
Cristy
Crystal
Cuma
Cunera
Cuneyt
Cuno
Curtis
Cyanne
Cynthia
cynthia
Cyrano
Cyrelle
Cyriel
Cyril
Cyrilla
Cyrille
Cyrina
Cyrus
Daaf
Daan
daan
Daan
Daantje
Dafina
Dafne
Dagmar
Dahlia
Daimen
Daimy
Dain
Daisy
daisy
Daisy
Dajana
Dajo
Dakota
Dalal
Dale
Daley
daley
Daley
Dali
Dalia
Dalibor
Dalila
Dalya
Damanja
Damaris
Damiaan
Damian
damian
Damiano
Damianus
Damien
Damini
Damion
Damir
Damla
Damon
Damy
Damyan
Dan
dana
Dana
Danae
Dane
Danee
D'Angelo
Dani
dani
Dani
Dania
Danial
Danica
Danice
Danick
Daniek
Danieke
Daniel
daniel
Daniel
daniël
Daniël
Daniela
Daniele
Daniella
Daniëlla
daniëlla
Danielle
danielle
Danielle
Daniëlle
daniëlle
Danijel
Danijela
Danika
Danila
Danilio
Danillo
Danilo
Danilson
Danine
Danique
danique
Danique
Danischa
Danish
Danisha
Danita
Danitia
Danitsja
Danja
Danjella
Danne
Danni
Danniek
Dannique
Danny
danny
Danny
Dano
Dante
Dany
Danya
Danyal
Danyel
Daoud
Daphna
Daphne
daphne
Daphne
Daphny
Dara
Darcy
Dardan
Daria
Darian
Darinka
Dario
Darius
Darja
Darko
Darlene
Darnell
Daron
Darrel
Darrell
Darren
Darryl
Darshan
Darwin
Darya
Daryl
Daryll
Dascha
Daud
Dave
dave
Dave
Davey
Davi
David
david
David
Davida
Davide
Davie
Davin
Davina
Davine
Davinia
Davita
Davud
Davut
Davy
Dawid
Dawn
Dax
Daya
Dayanara
Dayenne
Dayna
Deacon
dean
Dean
Deanne
Debbie
debbie
Debbie
Debby
debby
Debby
Debora
Deborah
deborah
Debra
Declan
Deejay
Deen
Deena
Deepak
Defne
Deirdre
Dejan
Delal
Delana
Delano
Delany
Delayla
Delia
Deliana
Delicia
Delila
Delilah
Delina
Delphine
Demelsa
Demelza
Demet
demi
Demi
Demian
Demie
Demien
Demir
Demis
Demy
Dena
Deni
Denian
Denice
Deniece
Denilson
Denis
Denisa
denise
Denise
Denisha
Deniz
Denley
Dennes
Dennie
Dennis
dennis
Denny
Deny
Denyse
Denzel
Denzell
Deon
Derck
Derek
Derk
derk
Derk-Jan
Derkje
Derrick
Dervis
Derya
Desi
Desie
Desire
Desiree
Désirée
désirée
Desley
Desmond
Desney
Desteney
Desteny
Destin
Destina
Destiny
Detlef
Devano
Devante
Deveney
Deveny
Devi
Devika
Devin
Devina
Devlin
Devon
Devran
Devrim
Dewi
Dewika
Dewy
dex
Dex
Dexter
Dhiradj
Dhiraj
Dian
diana
Diana
Diandra
Diane
Dianne
Diantha
Dianthe
Diaz
Diba
Dick
dick
Dick
Dicky
Dicle
Dico
Dide
Didem
Didi
Didier
Dido
Diede
Diederick
Diederik
Diego
Dieke
Diemer
Diena
Dieneke
Dienke
Diesel
Dieter
Dieudonnee
Dieuwertje
dieuwertje
Dieuwertje
Dieuwke
Diewertje
Digna
Dijana
Dikra
Dila
Dilan
Dilana
Dilano
Dilara
Dilay
Dilber
Dilek
Diliana
Dillan
Dillen
Dillon
Dim
Dima
Dimara
Dimas
Dimitra
Dimitri
Dimitrios
Dimitris
Dimitry
Dimphina
Dimphna
Dimphy
Din
Dina
dina
Dina
Dinah
Dinand
Dinanda
Dinant
Dineke
Dinesh
Dingeman
Dingena
Dingenis
Dingenus
Dinh
Dini
Dinie
Dinja
Dino
Diny
Dio
Diogo
Dion
Diona
Dione
Dionisius
Dionne
Dionysia
Dionysius
dirk
Dirk
Dirkjan
Dirk-Jan
Dirkje
dirkje
Dita
Ditmar
Ditta
Ditte
Divano
Divera
Divine
Diya
Diyar
Djairo
Djamel
Djamila
Djamilla
Django
Djarno
Djay
Djayden
Djen
Djenna
Djesse
Djim
Djimmy
Djino
Djoeke
Djoey
Djoni
Djonno
Djordi
Djordy
Djuna
Djura
Djuri
Djurre
Djustin
Dmitri
Doede
Doeke
Doenja
Doetje
Dogan
Dogukan
Doha
Dolf
Dolly
Dolores
Domenica
Domenico
Domenique
Dominggus
Domingo
Dominic
Dominica
Dominick
Dominicus
Dominiek
Dominik
Dominique
dominique
Dominique
Domino
Don
Donald
Donatella
Donato
Donavan
Dondu
Done
Donia
Donja
Donna
Donne
Donnie
donny
Donny
Donovan
Donya
Door
Doortje
Dora
Dorcas
Dore
Doreen
Dorenda
Dorette
Dorian
Dorianne
Dorieke
Dorien
Dorina
Dorinda
Dorinde
Dorine
Doris
Dorith
Doron
Dorothe
Dorothea
dorothea
Dorothee
Dorothy
Dorris
Dorrit
Dorus
Douaa
Douae
Douglas
Douha
Dounia
Dounya
Doutsen
Doutzen
Douwe
douwe
Douwina
Dragan
Dragana
Dre
Driek
Dries
Driesje
Drifa
Driss
Duane
Duc
Duco
Dudu
Duke
Duko
Duncan
Dunia
Dunja
Dunya
Duran
Durk
Durkje
Durmus
Dursun
Dusan
Dustin
Dusty
Duuk
Duy
Duygu
Dwayn
Dwayne
Dwight
Dyami
Dyan
Dyanne
Dyantha
dylan
Dylan
Dylana
dylano
Dylano
Dyllan
Dymphna
Dymphy
Dyon
Dyonne
Earl
Ebba
Ebe
Ebenezer
Ebony
Ebrahim
Ebrar
Ebru
Ebu
Ebubekir
Ece
Ecem
Echica
ecrin
Ecrin
Ed
ed
Eda
Edanur
eddie
Eddie
Eddo
Eddy
eddy
Eddy
Eden
Edgar
Edin
Edina
Edine
Edis
Edison
Edita
Edith
edith
Ediz
Edmar
Edmee
Edmond
Edmund
Edna
Edo
Edson
Edu
Eduard
eduard
Eduard
Eduardo
Eduardus
Edvin
Edward
edward
Edward
Edwin
edwin
Edwin
Edwina
Edwinus
Edzard
Eef
Eefje
Eefke
Eeke
Eelco
Eelke
Eelkje
Eelko
Eeuwe
Efe
Efekan
Efraim
Egberdina
Egbert
egbert
Egbertje
Egbertus
Egemen
Egidius
Egon
Ehsan
Eibert
Eibertje
Eileen
Eilish
Eimert
Eise
Eize
Ekaterina
Eke
Ekram
Ekrem
El
El Hassan
Ela
Elaine
Elana
Elanur
Elbert
Elbertha
Elbertus
Elbrich
Elcke
Elco
Eldert
Eldin
Eleanor
Eleanora
Elena
Elene
Eleni
Eleonoor
Eleonora
Eleonore
Elfi
Elfie
Elger
Elgin
Elham
Eli
Elia
Elian
Eliana
Eliane
Elianne
Elias
Elien
Eliene
elif
Elif
Elife
Elijah
Elin
elin
Elina
eline
Eline
Elio
Elisa
elisa
Elisa
Elisabet
Elisabeth
elisabeth
Elisah
Elise
elise
Elise
Elisha
Elissa
Eliz
Eliza
Elizabet
Elizabeth
elizabeth
Elizaveta
Elize
Elja
Elke
Elko
ella
Ella
Elle
Elleke
Ellemiek
Ellemieke
Ellemijn
Ellen
ellen
Ellenoor
Elles
Ellie
ellie
Elliot
Elliott
Ellis
elly
Elly
Elma
Elmar
Elmas
Elmer
Elmira
Elmo
Elnaz
Elodie
Eloise
Elon
Elora
Eloy
Elroy
Els
Elsa
Elsbeth
else
Else
Elseline
Elsemiek
Elsemieke
Elsien
Elsina
Elsje
elsje
Elske
Eltjo
Elton
Elvan
Elvera
Elvi
Elvie
Elvin
Elvira
Elvire
Elvis
Elwin
Elyas
Elyne
Elysa
Elyse
Elza
Elze
Elzo
Ema
Emad
Eman
Emanuel
Emanuela
Emanuelle
Emel
Emelia
Emelie
Emeline
Emely
Emerentia
Emerentiana
Emerson
Emese
Emi
Emie
Emiel
Emil
Emile
Emilia
Emiliano
Emilie
emilie
Emilio
Emilius
emily
Emily
Emin
Emina
Emine
Emir
emir
Emir
Emira
Emircan
Emirhan
Emke
Emma
emma
Emmaly
Emmanuel
Emmanuela
Emmanuella
Emmanuelle
Emme
Emmeke
Emmelie
Emmelien
Emmeline
Emmely
Emmi
Emmie
Emmily
Emmy
Emrah
Emre
Emrullah
Emy
Ena
Ender
Endy
Enes
Engbert
Engel
Engelbert
Engelbertus
Engelien
engelina
Engelina
Engeltje
Engin
Enis
Enise
Enna
Ennio
Enno
Enola
Enrico
Enrique
Ensar
Enver
Enya
Enza
Enzio
Enzo
Ephraim
Eppo
Eran
Eray
Erben
Ercan
Erdal
Erdem
Erdi
Erdinc
Eren
Ergin
Ergun
Erhan
eric
Eric
erica
Erica
Eric-Jan
Erick
Ericus
erik
Erik
Erika
Erik-Jan
Erinn
Erkan
Erman
Ermin
Ernest
Ernestine
Ernesto
Erno
Ernst
ernst
Ernst
Ernst-Jan
Erol
Eros
Errol
Ersan
Ersin
Ertan
Ertugrul
Erva
Ervin
Erwin
erwin
Esad
Esat
Esen
Esengul
Eser
Esha
esila
Esila
Esin
Eske
Eslem
Esli
Esma
Esmanur
Esmaralda
Esmay
Esme
esmee
Esmee
Esmée
esmée
Esmeralda
Esmeray
Esmiralda
Espen
Esper
Esperanza
Esra
esra
Esraa
Esri
Esteban
Estee
Estella
Estelle
Ester
Esther
esther
Estrella
Ethan
Ethem
Etienne
Euan
Eugene
Eugenia
Eugenie
Eunice
Euphemia
Eva
eva
Eva
Evalien
Evaline
Evan
Evander
Evangeline
Evanne
Eve
Evelien
evelien
Evelien
Eveliene
Evelijn
Evelina
Eveline
eveline
Eveline
Evelyn
Evelyne
Everarda
Everardus
Everdina
everdina
Everdina
Everdine
Everhard
Everhardus
Evert
evert
Evertine
Evert-Jan
Evertje
Evi
evi
Evi
Evianne
Evie
Evin
Evita
Evren
evy
Evy
Ewa
Ewald
Ewan
Ewoud
Ewout
Eylem
Eyup
Ezgi
Ezra
Faas
Faber
Fabian
fabian
Fabiana
Fabianne
Fabiano
Fabien
Fabienne
Fabio
Fabiola
Fabrice
Fabricio
Fabrizio
Fadi
Fadil
Fadila
Fadime
Fadma
Fadoua
Faduma
Fadumo
Fadwa
Fady
Fae
Fahad
Fahd
Fahim
Fahima
Fahrettin
Fahri
Faik
Fairouz
Faisa
Faisal
Faisel
Faissal
Faith
Faiz
Faiza
Faizel
Fajah
Falco
Falko
Fallon
Famke
Fannie
Fanny
Faouzi
Faouzia
Farah
Farahnaz
Fardau
Fardin
Fardou
Fares
Farha
Farhad
Farhan
Farhana
Farhiya
Farid
Farida
Farina
Faris
Farisha
Farley
Farouk
Farrah
Farshad
Faruk
Farzana
Fatema
Fathi
Fatih
Fatiha
Fatima
fatima
Fatimah
Fatime
Fatin
Fatine
Fatma
Fatmanur
Fatna
Fatoumata
Fausto
Fauve
Fauzia
Fay
fay
Faya
Faycal
Faye
Faysal
Fazilet
Fe
Febe
Fedde
fedde
Fedde
Federico
Fedor
Fedoua
Fee
Feija
Feije
Feike
Feikje
Feiko
Felice
Felicia
Felicity
Felien
Feline
feline
Feline
Felipe
Felix
felix
Felix
Fem
fem
Fem
Femia
Femke
femke
Femma
Femme
Femmie
Femmigje
Femmy
fenna
Fenna
Fenne
fenne
Fennechien
Fenneke
Fenneken
Fennetje
Fennie
Fennigje
Fenno
Fenny
Fer
Feray
Ferdi
Ferdie
ferdinand
Ferdinand
Ferdinandus
Ferdy
Ferenc
Ference
Ferhan
Ferhat
Feride
Ferit
Fernand
Fernanda
Fernando
Ferran
Ferre
Ferri
Ferrie
Ferris
Ferron
Ferry
Fevzi
Feya
Feyyaz
Feyza
Feyzullah
Fianne
Fidan
Fieke
Fien
fien
Fiene
fiene
Fiene
Fiep
Figen
Figo
Fija
Fijgje
Fikret
Fikri
Fikria
Fikriye
Filip
Filipe
Filippus
Filiz
Fimke
Fimme
Fin
Finette
Finley
Finn
finn
Finn
Fiona
Fiorella
Firas
Firat
Firdaous
Firdaouss
Firdevs
Fjodor
Flavia
Flavio
Flemming
Fleur
fleur
Fleurine
Fleurtje
Flint
Flip
Flo
floor
Floor
Floortje
Flor
Flora
Floran
Florance
Flore
Florence
Florencia
Florens
Florent
Florentien
Florentijn
Florentina
Florentine
Florentius
Floriaan
Florian
Florianne
Florieke
Florien
Florijn
Florina
Florine
floris
Floris
Floris-Jan
Florus
Flory
Floyd
Flynn
Foeke
Foekje
Fokje
Fokke
Fokko
Folkert
Fons
Foppe
Fouad
Fouzia
Franca
Frances
Francesca
Francesco
Francien
francina
Francina
Francine
Francis
Francisca
francisca
Francisca
Francisco
franciscus
Franciscus
Franciska
Franck
Franco
Francois
Francoise
Frank
frank
Franka
Franke
Frankie
Franklin
Franky
Frans
frans
Fransien
Fransina
Fransisca
Fransiscus
Fransje
Franz
Franziska
Frat
Frauke
Fraukje
Fred
fred
Fred
Freddie
freddie
Freddy
freddy
Freddy
Frederic
Frederica
Frederick
Frederico
Fredericus
Frederiek
Frederieke
Frederik
frederik
Frederika
frederika
Frederika
Frederike
Frederikus
Frederique
Fredrik
Fredrika
Freek
Freeke
Freerk
Freija
Freke
Frenk
Frenky
Frens
Freya
Frida
Frido
Frieda
Friedrich
friedrich
Friso
Frits
frits
Frouke
Froukje
Frouwke
Fuad
Fuat
Fulco
Fulya
Funda
Funs
Furkan
Fynn
Gabe
Gabi
Gabor
Gabriel
Gabriela
Gabriella
Gabrielle
Gaby
Gael
Gaelle
Gaetano
Gaia
Gail
Galid
Galina
Gallyon
Gamze
Ganesh
Gareth
Garry
Gary
Gaston
Gauke
Gavin
Gaya
Gaye
Gayle
Gazi
Gea
Geanne
Geart
Geartsje
Geeke
Geena
Geerdina
Geerke
Geert
geert
Geert
Geerte
Geerten
Geertjan
Geert-Jan
geertje
Geertje
Geertruda
geertrui
Geertrui
Geertruida
geertruida
Geesje
geesje
Geesje
Geeske
Geesken
Geessien
Geeta
Geke
Gelske
Gemma
Gene
Genelva
Genesis
Geneva
Genevieve
Gennaro
Geoffrey
Geoffry
Geordi
Geordy
Georg
George
george
George
Georges
Georgette
Georgia
Georgina
Georgino
Georgio
Georgios
Georgius
Gepke
Ger
Gera
Gerald
Geralda
Geraldine
Geraldo
gerard
Gerard
Gerarda
gerarda
Gerardina
gerardina
Gerardo
Gerardus
gerardus
Gerardus
Gerben
Gerbert
Gerbrand
Gerbrich
Gerbrig
Gerco
gerda
Gerda
Gerdi
Gerdien
Gerdina
gerdina
Gerdina
Gerdine
Gerhard
gerhard
Gerharda
Gerhardus
gerhardus
Gerianne
Gerie
Gerjan
Gerjanne
Gerjon
Gerke
Gerko
Gerlinda
Gerlinde
Gerline
Gerlof
Germ
Germa
Germain
Germaine
Germen
Geronimo
Gerrald
Gerrianne
Gerridina
Gerrie
Gerrieke
Gerriette
Gerrigje
Gerrit
gerrit
Gerrita
Gerritdina
gerritdina
Gerritdina
Gerritjan
Gerrit-Jan
gerritje
Gerritje
Gerry
Gersom
Gerson
Gert
Gertine
Gertjan
Gert-Jan
Gertruda
gertruda
Gertruda
Gertrude
Gertrudis
Gertruida
Gerwin
Gesina
gesina
Gesina
Geurt
Geurtje
Geziena
Gezina
gezina
Gezina
Gezinus
Ghislaine
Ghita
Ghizlan
Ghizlane
Giacomo
Giada
Gian
Giancarlo
Gianluca
Gianna
Gianne
Gianni
Giannina
Gianno
Gianny
Giano
Gideon
Gidion
Gido
Gidon
Giedo
Giel
Gies
Gigi
gijs
Gijs
gijsbert
Gijsbert
Gijsberta
gijsberta
Gijsberta
Gijsbertha
Gijsbertje
gijsbertus
Gijsbertus
Gijsbrecht
Gijsje
Gilano
Gilbert
Gilberto
Giliam
Gilian
Giliano
Gillermo
Gilles
Gillian
Gilliano
Gillis
Gilmar
Gina
gina
Gina
Gineke
Ginette
Ginger
Gini
Ginny
Gino
gino
Giny
Gio
Gioia
Giomar
Giordano
Giorgia
Giorgio
Giovani
Giovanna
Giovanni
Giovannie
Giovanny
Gioya
Gisela
Gisella
Giselle
Gita
Githa
Gitta
Gitte
Giulia
Giuliano
Giulio
Giuseppe
Givano
Gizem
Gjalt
Gladys
Glen
Glenda
Glenn
Glenny
Gloria
Glynis
Godefridus
Godelieve
Godfried
Gokan
Gokay
Gokce
Gokhan
Gommert
Gonca
Gonda
Gonneke
Gonnie
Gonul
Goof
Gooitzen
Goos
Goossen
Goran
Gordon
Gorkem
Gosse
Goverdina
Govert
Gozde
Grace
Gracia
Graciela
Graciella
grada
Grada
gradus
Gradus
Graeme
Graham
Graziella
Greetje
Greg
Gregor
Gregorius
Gregory
Greta
greta
Greta
Gretha
Grietje
grietje
Griffin
Grytsje
Gudo
Guido
guido
Guido
Guiliano
Guillaume
Guillermo
Guilliano
Guinevere
Guiseppe
Gul
Gulay
Gulbahar
Gulcan
Gulcin
Gulden
Guled
Guleed
Guler
Gulhan
Gulistan
Gulizar
Gullu
Gulsah
Gulsen
Gulseren
Gulsum
Gulten
Guluzar
Gunnar
Gurkan
Gus
Gustaaf
Gustav
Gustavo
guus
Guus
guusje
Guusje
Guust
Guven
Guy
Guylian
Guyon
Gwen
Gwenda
Gwendoline
Gwendolyn
Gwendolyne
Gwendolynn
Gwenn
Gwenny
Gwyneth
Gyan
Gydo
Habib
Habiba
Habibe
Hac
Hacer
Haci
Hadassa
Hadassah
Hadi
Hadia
Hafid
Hafida
Hafize
Hafsa
hafsa
Hafssa
Hagar
Hager
Hai
Haico
Haidar
Haider
Haije
Haiko
Hailey
hailey
Hailey
Haitam
Hajar
hajar
Hajar
Hajer
Hajo
Hakan
Hakim
Hakima
Hakki
Hala
Halbe
Hale
Haley
Halil
Halim
Halima
Halime
Halit
Hamda
Hamdi
Hamed
Hamid
Hamida
Hamide
Hamit
Hamsa
Hamse
Hamza
hamza
Hamza
Hamzah
Hamze
Han
Hana
Hanad
Hanae
hanan
Hanan
Hanane
hanane
Hanane
Hananja
Handan
Hande
Hani
Hanifa
Hanife
Hanifi
Hanim
Hanin
Hanke
Hanna
hanna
Hanna
Hannah
hannah
Hannah
Hannan
Hanne
Hanneke
hanneke
Hanneke
Hannelore
Hannes
hannie
Hannie
Hanno
hanny
Hanny
Hans
hans
Hansje
Hao
Harald
Haris
Harke
Harley
harm
Harm
Harma
Harman
Harmanna
Harmannus
harmen
Harmen
Harmina
harmina
Harmjan
Harm-Jan
Harmke
Harmpje
Haroen
Harold
Haron
Haroun
Harrie
harrie
Harriet
Harriette
Harrison
Harro
Harry
harry
Harun
Harvey
Harwin
Hasan
Hashim
Hasibe
Hasna
Hasnae
Hasret
Hassan
Hassana
Hasse
Hatice
Hatim
Hatun
Hava
Havin
Havva
Hawa
Hayat
Hayati
Haydar
Haye
Hayley
Hayo
Hayrettin
Hayri
Hayriye
Hazal
Hazar
Hazel
Heather
Heaven
Heavenly
Heba
Hebe
Hector
Hedda
Hedde
Hediye
Hedwich
Hedwig
Hedy
Hedzer
Heidi
Heidy
Heike
Heiko
Heiltje
Heimen
Hein
Heine
heinrich
Heinrich
heintje
Heintje
Heleen
Helen
Helena
helena
Helene
Helga
Helin
Hella
Hellen
Helma
Helmer
Helmi
Helmich
Hemmo
Hendericus
Henderik
Henderika
henderika
Henderika
Henderikus
Hendri
Hendrica
hendrica
Hendrica
Hendrick
Hendricus
hendricus
Hendricus
Hendrieka
Hendrieke
Hendrik
hendrik
hendrika
Hendrika
Hendrike
Hendrik-Jan
Hendrikje
hendrikje
Hendrikus
hendrikus
Hendrina
hendrina
Hendrina
Hendry
Henk
Henk-Jan
Henna
Hennie
hennie
henny
Henny
henri
Henri
Henrica
henrica
Henrick
Henrico
Henricus
henricus
Henricus
Henrie
Henrieke
Henriet
Henrietta
Henriette
henriette
Henriette
Henriëtte
henriëtte
Henrik
Henrika
Henrike
Henrikus
Henry
Herbert
Herjan
Herm
Herma
Herman
herman
Hermann
Hermanna
Hermannes
Hermannus
hermannus
Hermannus
Hermanus
hermanus
Hermanus
Hermen
Hermien
Hermina
hermina
Hermine
Hero
Herre
Herwin
Hessel
Hester
Hesther
Hette
Hetty
Hiba
Hibo
Hicham
hicham
Hicham
Hicran
Hidayet
hidde
Hidde
Hieke
Hielke
Hielkje
Hieronymus
Hikmet
Hila
Hilal
Hilary
Hilbert
Hilbertus
Hilbrand
Hilco
Hilda
Hilde
Hildegard
Hilje
Hilke
Hilko
Hillary
Hille
Hillebrand
Hillechien
Hillechiena
hillegonda
Hillegonda
Hilletje
Hillie
Hilligje
Hilly
Hilmi
Hiltje
hiltje
Hiltje
Hina
Hind
Hinderika
Hinderikus
Hinderkien
hindrik
Hindrik
Hinke
Hira
Hisham
Hiske
Hiu
Hjalmar
Ho
Hoang
Hobie
Hoda
Hodan
Hoi
Holger
Holly
Hong
Hope
Hossam
Hossein
Hotze
Houda
Houdaifa
Houria
Houssain
Houssam
Houssine
Howard
Huberdina
Hubert
hubert
Hubert
Huberta
Hubertina
hubertina
Hubertina
hubertus
Hubertus
Hubrecht
Huda
Hugo
hugo
Hui
Huib
Huiberdina
Huibert
Huibertje
Huibertus
Huibrecht
Huig
Hulya
Humeyra
Humphrey
Hung
Huriye
Husein
Huseyin
Husna
Hussain
Hussein
Huub
Huy
Hylke
Hylkje
Hymke
Iain
Ian
Ianthe
Ibe
Iboya
Ibrahim
ibrahim
Ibtisam
Ibtisame
Ibtissam
Ibtissame
Ichelle
Ida
ida
Ida
Iddo
Ide
Idil
Ido
Idris
Idriss
Ids
Idse
Idske
Iefke
Ieke
Iemke
Ietje
Ifrah
Iggy
Ignatius
Igor
Ihab
Ihsan
Ihsane
Ihssane
IJsbrand
Ike
Ikra
Ikram
ikram
Ikram
Ikrame
Ilan
Ilana
Ilayda
Ilaysa
Ilco
Ileen
Ilene
Ilham
Ilhame
Ilhan
Ilia
Ilian
Ilias
ilias
Iliass
Ilja
Ilka
Ilkay
Ilke
Ilker
Ilknur
Illias
Ilona
ilona
Ilona
Ilonca
Ilone
Ilonka
Iloy
Ilsa
Ilse
ilse
Ilse
Ilva
Ilvy
Ilya
Ilyaas
Ilyas
Ilyass
Ilyasse
Ilze
Imaan
Imad
Imadeddine
Iman
Imane
imane
Imani
Imar
Imara
Imelda
Imen
Imke
Imko
Immanuel
Imme
Immy
Imogen
Imraan
imran
Imran
Imrane
Imre
Imro
Ina
ina
Ina
Inas
Inass
Inci
Indah
Indi
India
Indiana
Indie
Indigo
Indira
Indra
Indy
indy
Ine
Ineke
Ines
Inez
Inga
inge
Inge
Ingeborg
ingeborg
Ingemar
Inger
Ingetje
Ingmar
Ingo
Ingrid
ingrid
Inke
Ino
Insaf
Inssaf
Intissar
Ioanna
Ioannis
Iona
Ipek
Iqra
Ira
Ireen
Irem
Irena
irene
Irene
Ires
Irfaan
Irfan
Irina
Irini
Iris
iris
irma
Irma
Irmak
Irmgard
Irsa
Irving
Isa
isa
Isa
Isaac
Isaak
Isabeau
Isabel
isabel
Isabel
Isabella
isabella
Isabelle
isabelle
Isabelle
Isadora
Isai
Isaiah
Isak
Isar
Isaura
Ischa
Ise
Isha
Ishaan
Ishak
Ishan
Ishana
Ishani
Ishara
Ishika
Isil
isis
Isis
Iskander
Islam
Ismael
Ismahan
Ismahane
Ismail
ismail
Ismail
Ismay
Ismet
Isobel
Isolde
Isra
Israa
Israe
Issa
Issam
Issrae
Itske
Iva
Ivan
Ivana
Ivanildo
Ivanka
Ivanna
Ivano
Ivar
Ivette
Ivo
ivo
Ivon
Ivonne
Ivor
ivy
Ivy
Iwan
Iwana
Iza
Izaak
Izabella
Izak
Ize
Izzet
Jaafar
Jaantje
Jaap
Jaap-Jan
Jaber
Jabir
Jacco
Jace
Jacey
Jacinta
Jacintha
Jack
jack
Jackelien
Jackie
jackie
Jackie
Jacklyn
Jacko
Jackson
jacky
Jacky
Jaclyn
Jaco
jacob
Jacob
Jacoba
jacoba
Jacobien
Jacobina
Jacobine
Jacobje
jacobus
Jacobus
Jacolien
Jacoline
Jacomijn
Jacomijntje
Jacomina
Jacquelien
Jacqueline
jacqueline
jacques
Jacques
Jacyntha
Jada
jade
Jade
Jaden
Jadey
Jadie
Jadon
Jady
Jael
Jaela
Jafar
Jafeth
Jai
Jaiden
Jaidy
Jaike
Jaime
Jaimey
Jaimie
Jaimy
Jaimy-Lee
Jainy
Jair
Jairo
Jairzinho
Jake
Jakko
Jakob
jakob
Jakob
Jakoba
Jakobus
Jakub
Jalal
Jale
Jaleesa
jaleesa
Jalil
Jalila
Jalisa
Jamahl
Jamai
Jamairo
Jamal
Jamel
James
james
James
Jamey
Jamie
Jamie-Lee
Jamil
Jamila
Jamilla
Jamiro
Jamy
Jan
jan
Jan
Jana
Janco
Jane
Janelle
Janet
Janette
Janey
Janice
Janick
Janie
Janiek
Janieke
Janien
Janienke
Janik
Janina
Janine
Janinka
Janique
Janis
Janita
Jan-Jaap
Jan-Joost
Janke
janke
Janke
Janko
Janna
janna
Janna
Jannah
janne
Janne
Janneke
janneke
Jannes
Jannet
Jannetje
jannetje
Jannetta
Jannette
Jannick
Jannie
jannie
Jannie
Janniek
Jannieke
Jannigje
jannigje
Jannigje
Jannik
Jannine
Jannis
Jannita
Janno
Janny
janny
Janny
Janou
Janouk
Jan-Paul
Jan-Peter
Jan-Pieter
Jans
Jansje
jansje
Jansje
Janske
Jante
Jantien
Jantiena
Jantiene
jantina
Jantina
Jantine
Jantinus
Jantje
jantje
Jantsje
Janus
Janwillem
Jan-Willem
Jany
Jaouad
Japke
Jaqueline
Jara
Jarco
Jard
Jardi
Jared
Jari
Jarich
Jarick
Jarik
Jaring
Jarl
Jarmo
Jarne
Jarnick
jarno
Jarno
Jaro
Jarod
Jaromir
Jaron
Jary
Jascha
Jasin
Jasmien
Jasmijn
jasmijn
Jasmijn
Jasmin
Jasmina
Jasmine
Jasmyn
Jason
jason
Jasper
jasper
Jasperina
Jassin
Jauke
Javier
Jawad
Jay
Jaya
Jayant
Jayanti
Jayce
Jayda
Jaydan
Jaydee
jayden
Jayden
Jaydon
Jay-Jay
Jayla
Jaylee
Jaylen
Jaylin
Jayme
Jaymie
Jayne
Jayro
Jayson
Jazz
Jazzley
Jazzy
Jean
jean
Jeanet
Jeanette
Jeanice
Jeanine
Jeanique
Jean-Luc
Jean-Michel
Jeanne
jeanne
Jeannet
jeannette
Jeannette
Jeannine
Jeannot
Jeanny
Jean-Paul
Jean-Pierre
Jeany
Jedidja
Jeen
Jef
Jeff
Jefferson
Jeffery
Jeffrey
jeffrey
Jeffry
Jefrey
Jefta
Jeftha
Jelani
Jelco
Jelena
Jelger
Jelisa
Jelka
Jelke
Jella
jelle
Jelle
Jellie
Jelly
Jelmar
Jelmer
Jelske
Jelt
Jelte
Jeltje
jeltje
Jeltje
Jeltsje
Jemaine
Jemima
Jenairo
Jenifer
Jenine
Jenita
Jenna
Jenne
Jennefer
Jenneke
Jenneken
Jennie
jennifer
Jennifer
Jennigje
Jenno
Jenny
Jennyfer
jens
Jens
Jense
Jenske
Jent
Jente
Jenthe
Jentje
Jeoffrey
Jeppe
Jered
Jeremey
Jeremi
Jeremia
Jeremiah
Jeremias
Jeremie
Jeremy
jeremy
Jerina
Jermain
Jermaine
Jermo
Jermy
Jerney
Jeroen
jeroen
Jeroen
Jerom
Jerome
Jeromy
Jeron
Jeronimus
Jerre
Jerrel
Jerremy
Jerrold
Jerry
jerry
Jerry
Jersey
Jerusha
Jerzy
Jesaja
Jesca
Jeska
Jeske
Jesmer
Jesper
jesper
Jess
Jessa
Jessamy
Jesse
jesse
Jesse
Jessey
Jessi
Jessica
jessica
Jessie
Jessika
Jessin
Jessy
Jesus
Jet
Jethro
Jetse
Jetske
Jette
Jettie
Jetty
Jetze
Jevon
Jewel
Jhon
Jhonny
Ji
Jia
Jian
Jibbe
Jidde
Jie
Jihad
Jihan
Jihane
Jikke
Jil
Jildau
Jildert
Jildou
Jilke
Jill
jill
Jill
Jille
Jilles
Jillian
Jillis
Jilly
Jim
Jimi
Jimme
Jimmie
Jimmy
jimmy
Jimmy
Jin
Jing
Jinke
Jinte
Jinthe
Jip
jip
Jip
Jippe
Jiri
Jiry
Jisca
Jisk
Jiska
Jiske
Jisse
Jits
Jitse
Jitske
Jitte
Jitze
Jivan
Jo
Joachim
Joah
Joakim
Joan
Joana
Joanie
Joann
Jo-ann
Jo-Ann
Joanna
joanna
Joanne
Jo-Anne
Jo-anne
Joanneke
Joannes
joannes
Joannes
Joany
Joao
Joaquim
Joaquin
Joas
job
Job
Jobbe
Jobje
Jocelyn
Jocelyne
Jochem
jochem
Jochem
Jochen
Jochum
jochum
Jodi
Jodie
Jody
Joe
Joek
Joeke
Joel
Joell
Joella
Joelle
joëlle
Joëlle
Joep
joep
Joep
Joeri
Joerie
Joery
Joes
Joey
joey
Joffrey
Jogchum
Johan
johan
Johanan
Johann
johann
Johann
johanna
Johanna
Johanne
Johanneke
Johannes
johannes
Johannis
Johannus
John
john
Johnathan
Johnnie
Johnno
Johnny
johnny
Johnny
Johnson
Johny
Jojanneke
Joke
joke
Jolan
jolanda
Jolanda
Jolande
Joleen
Jolein
Jolene
Jolie
Jolieke
Jolien
Joliene
Jolijn
Jolina
Jolinda
Jolinde
Joline
Jolisa
Jolle
Jolyn
Jon
Jona
Jonah
Jonas
jonas
Jonas
Jonatan
Jonathan
jonathan
Jonatan
Joni
Jonie
Jonna
Jonne
Jonneke
Jonno
Jonny
Jony
Jools
Joop
Joos
Joosje
Jooske
joost
Joost
Jop
Joppe
Jor
Jora
Joram
Joran
Jorben
Jord
Jordan
jordan
Jordan
Jordana
Jorden
Jordey
Jordi
Jordie
Jordin
Jordy
jordy
Joren
Jorg
Jorge
Jorgen
Jorginho
Jorgo
Jori
Jorian
Jorick
Jorie
Jorieke
Jorien
Jorijn
Jorik
Jorike
Jorim
Jorin
Jorina
Jorinda
Jorinde
Jorine
Joris
joris
Jorit
Jorja
Jorn
Jorna
Jorne
Jorno
Jornt
Jorre
Jorren
Jorrick
Jorrik
Jorrin
Jorrit
Jort
Jory
Jos
Josanne
Josca
Jose
jose
Jose
José
josé
Josef
Josefien
Josefina
Josefine
Joselien
Joseline
joseph
Joseph
Josepha
Josephien
Josephina
josephina
Josephine
josephine
Josephine
Josephus
josephus
Josephus
Josette
Josh
Josha
Joshi
Joshua
joshua
Josia
Josiah
Josianne
Josias
Josie
Josien
Josina
josina
Josina
Josine
Josip
Josja
Josje
Joska
Joske
Josse
Josta
Josua
Jouk
Jouke
Joukje
Jouri
Joury
Jovan
Jovana
Jovanka
Jovanni
Jovanny
Jovi
Jowi
Joy
Joya
Joyca
joyce
Joyce
jozef
Jozef
Jozefien
Jozefina
Jozeph
Jozephus
Jozias
Jozien
Jozina
Jozua
Juan
Juana
Juanita
Juanito
Juda
Judah
Judi
Judie
Judit
judith
Judith
Judy
Jula
Jule
Jules
Juli
Julia
julia
Julia
julian
Julian
Juliana
Juliane
Julianne
Juliano
Julide
julie
Julie
Julien
Julienne
Juliet
Juliette
juliette
Julika
Julio
Julisa
Julissa
Julius
julius
Jullian
Julot
July
Jun
Juna
juna
Junaid
June
Juninho
Junior
Juno
Jur
Jurg
Jurgen
Juri
Juriaan
Jurian
Jurick
Jurie
Jurien
Jurjan
Jurjen
Jurn
jurre
Jurre
Jurren
Jurriaan
Jurrian
Jurrie
Jurrien
Jurrit
Just
Justa
Justen
Justian
Justice
Justin
justin
Justina
Justine
Justinus
Justus
Jutta
Juul
Juulke
Juultje
Juup
Jyoti
Jytte
Ka
Kaan
Kaat
Kaatje
Kader
Kadija
Kadir
Kadriye
Kady
kai
Kai
Kailash
Kailey
Kaily
Kain
Kaitlin
Kaitlyn
Kaj
Kaja
Kajal
Kajol
Kaleb
Kalina
Kalle
Kaltoum
Kamal
Kamiel
Kamil
Kamila
Kamile
Kamran
Kane
Kaoutar
kaoutar
Kaoutar
Kaouthar
Kara
Karam
Karan
Kardelen
Kareem
Karel
karel
Karel
Karen
Kari
Karianne
Kariem
Karien
Karijn
Karim
karim
Karim
Karima
karin
Karin
karina
Karina
Karine
Karishma
Karl
Karla
Karlien
Karlijn
Karlijne
Karlo
Karmen
Karola
Karolien
Karolina
Karoline
Kars
Karst
Karsten
Karuna
Karwan
Kas
Kashif
Kasim
Kaspar
Kasper
Kassandra
Katarina
Katarzyna
Kate
kate
Katelijn
Katelijne
Katerina
Katharina
Kathelijn
Kathelijne
Katherina
Katherine
Kathinka
Kathleen
Kathryn
Kathy
Katia
Katie
Katinka
Katja
katja
Kato
Katrien
Katrijn
Katrin
Katrina
Katy
Katya
Kavish
Kavita
Kawa
Kawita
Kawtar
Kay
Kaya
Kaydee
Kayla
Kaylee
kaylee
Kaylee
Kayleigh
kayleigh
Kayleigh
Kayley
Kaylie
Kaylin
Kayne
Kayo
Kayra
Kaz
Kazim
Kazimir
Kean
keano
Keano
Keanu
Kee
Keely
Keenan
Kees
kees
Kees-Jan
Keimpe
Keira
Keisha
Keith
Kelley
Kellie
Kelly
kelly
Kelsey
Kelsy
Keltoum
Kelvin
Kely
Kemal
Ken
Kenan
Kendra
Kendrick
Kenji
Kenley
Kenn
Kenneth
Kenney
Kenny
Kenrick
Kent
Kenza
Kenzo
Keo
Keona
Kerem
Keri
Kerim
Kerstin
Kerwin
Kes
Keshia
Kester
Kevin
kevin
Kevser
Kezban
Keziah
Keziban
Khadija
khadija
Khadra
Khadya
Khaled
Khalid
khalid
Khalid
Khalil
Khallil
Khaoula
Khouloud
Kian
Kiana
Kiara
Kick
Kicky
Kiefer
Kiek
Kieran
Kiet
Kik
Kika
kiki
Kiki
Kikki
Kilian
Killian
kim
Kim
Kimber
Kimberley
kimberley
Kimberly
kimberly
Kimberly
Kimi
Kimm
Kimmy
Kimo
Kin
King
Kinga
Kingsley
Kiomi
Kiona
Kira
Kiran
Kirby
Kiri
Kirsi
kirsten
Kirsten
Kirstie
Kirstin
Kirsty
Kirti
Kishan
Kishen
Kit
Kitty
Kiymet
Kjeld
Kjell
Kjelt
Klaartje
Klaas
klaas
Klaas
Klaasjan
Klaas-Jan
klaasje
Klaasje
Klaaske
Klara
Klasina
Klaske
Klaudia
Klaziena
klazina
Klazina
Ko
Kobus
koen
Koen
Koendert
Koenraad
Koert
Kofi
Komal
Kommer
Konrad
Konstantin
Konstantinos
Koop
Koos
Koosje
Koray
Kornelia
Kornelis
kornelis
Kornelis
Kors
Korstiaan
Krijn
Krijna
Krijntje
Krina
Kris
Krishan
Krishna
Krissie
Krissy
Krista
Kristan
Kristel
Kristen
Kristi
Kristiaan
Kristian
Kristianne
Kristie
Kristien
Kristijan
Kristin
Kristina
Kristine
Kristof
Kristy
Krystel
Krystian
Krystle
Krzysztof
Kubilay
Kubra
Kuno
Kursad
Kursat
Kurt
Kwabena
Kwaku
Kwame
Kwint
Kwinten
Kwok
kyan
Kyan
Kyana
Kyano
Kyara
Kyla
Kyle
Kylian
Kylie
Kyllian
Kyo
Kyona
Kyra
Kyran
Kyrill
Kyro
La
Ladan
Laetitia
Lahbib
Lahcen
Lahoucine
Lai
Laila
Lakeisha
Lakisha
Lakshmi
Lale
Lalita
Lamar
Lamberdina
Lambert
Lamberta
Lambertha
Lambertus
lambertus
Lambertus
Lamia
Lamiae
Lammechien
Lammert
lammert
Lammert
Lammie
Lammigje
Lamya
Lamyae
Lan
Lana
lana
Lana
Lance
Lando
Lani
Laquisha
Lara
lara
Lard
Larisa
larissa
Larissa
Larry
lars
Lars
Lasse
Laszlo
Latif
Latifa
Latifah
Latife
Latischa
Latisha
Latoya
laura
Laura
Lauraine
Lauran
Lauranne
Laure
Laureen
Laurel
lauren
Lauren
Laurence
laurens
Laurens
Laurens-Jan
Laurent
Laurentia
Laurentius
Laurenz
Lauretta
Laurette
Lauri
Laurie
Laurien
Laurina
Laurine
Laurus
Laury
Lauryn
Lava
Lavina
Lavinia
Lawrence
Layla
Lazar
Lazlo
Lea
Leah
Lean
Leana
Leander
Leandra
Leandro
Leann
Leanne
Leco
Lee
Leen
Leena
Leendert
leendert
Leendert-Jan
Leentje
leentje
Leeroy
Lei
Leida
Leidy
Leigh
Leila
Leilani
Lein
Leintje
Lejla
Lela
Lema
Lemar
Len
lena
Lena
Lenard
Lene
Leni
Lenie
Lenka
Lenn
Lenna
Lennaert
Lennard
Lennart
Lenne
Lenneke
Lennert
Lennie
Lenno
Lennon
Lennox
Lenny
Lente
Lenthe
Leny
leo
Leo
Leon
leon
Leon
Leona
Leonard
Leonarda
Leonardo
Leonardus
leonardus
Leonardus
Leone
Leonhard
Leoni
Leonie
leonie
Leonie
Leoniek
Leonieke
Leonique
Leonne
Leonoor
Leonora
Leonore
Leontien
Leontina
Leontine
Leony
Leopold
Leora
Leroy
leroy
Lesley
Lesley-Ann
Leslie
Lesly
Lester
Leticia
Letitia
Leunis
Leuntje
Lev
Levent
Levi
levi
Levi
Levien
Levin
Levina
Levinus
Levon
Levy
Lewis
Lex
Lexi
Leyla
Li
Lia
Liam
liam
Lian
Liana
Lianda
Liane
Lianna
Lianne
lianne
Libaan
Liban
Libby
Lichelle
Lida
Lidewei
Lidewij
Lidia
Lidian
Liduina
Lidwien
Lidwina
Lidwine
Lidy
Liedeke
Liedewij
Liefke
lieke
Lieke
Lien
Liena
Liene
Lieneke
Lienke
Lies
Liesanne
Liesbeth
Liese
Lieselot
Lieselotte
Liesje
Lieske
Lieuwe
Lieuwkje
lieve
Lieve
Lieveke
Lieven
Lieze
Lijntje
Lijsje
Lika
Lila
Lili
Lilia
lilian
Lilian
Liliana
Liliane
Lilianne
Lilith
Lilli
Lillian
Lilly
lily
Lily
Lima
Lin
lina
Lina
Lincy
Linda
linda
Linda
Linde
linde
Lindey
Lindi
Lindomar
Lindsay
Lindsey
lindsey
Lindsey
Lindsy
Lindy
Line
Lineke
Linet
Linette
Ling
Linn
Linne
Lino
Linsey
Linsy
Linus
Lion
Liona
Lionel
Lionne
Lior
Liora
Lioen
Liron
Lis
Lisa
lisa
Lisa-Marie
Lisan
Lisandra
Lisanna
Lisanne
lisanne
Lisanne
Lise
lise
Liselore
Liselot
Liselotte
Lisenka
Liset
Lisette
lisette
Liske
Lissa
Lisse
Lissy
Liv
liv
Liv
Livia
livia
Liz
liz
Liza
Lizan
Lizanne
Lize
Lizelotte
Lizet
Lizette
Lizz
Lizzie
lizzy
Lizzy
Lloyd
Lobke
Lobna
Lode
Lodewijk
lodewijk
Lodewijk
Lody
Loek
loek
Loeka
Loeke
Loeki
Loekie
Loena
Loes
loes
Loesje
Loet
Logan
Loic
Lois
lois
Lois
Loïs
loïs
Lok
Lokman
Lola
lola
Lolita
Lolke
Lolkje
Lone
Long
Lonne
Lonneke
Lora
Lorain
Loraine
Loran
Lore
Loredana
Loreen
Loren
Lorena
Lorenz
Lorenza
Lorenzo
lorenzo
Lorenzo
Loretta
Lorette
Lori
Lorijn
Lorin
Loris
Lorna
Lorraine
Lot
Lotfi
Lotje
Lotta
Lotte
lotte
Lotti
Lottie
Lotty
Lotus
Lou
lou
Loubna
Louella
Louelle
louis
Louis
Louisa
louisa
Louise
louise
Louise
Louiza
Louk
Louka
Louke
Loulou
Loura
Lourdes
Lourens
Lourina
Louw
Louwe
Louwrens
Lowie
Loyd
Luan
Luana
Lubbert
Lubbertus
Lubertha
Lubertus
Lubna
Luc
luc
Luc
Luca
luca
Luca
Lucas
lucas
Lucca
Luce
Lucette
Lucia
lucia
Lucian
Luciana
Luciano
Lucie
Lucien
lucienne
Lucienne
Lucille
Lucinda
Lucinde
Lucius
Luck
Lucky
Lucretia
Lucy
Ludo
Ludovic
Ludovica
Ludovicus
ludovicus
Ludovicus
Ludwig
Ludwina
Luigi
Luigino
Luis
Luisa
Luit
Luite
Luitzen
Luka
Lukas
Lukasz
Luke
luke
Luke
Lulu
Lummetje
luna
Luna
Lune
Lusanne
Lute
Lutske
Luuc
Luuk
luuk
Luuke
Luus
Luut
Luz
Lyam
Lyan
Lyanne
Lycke
Lydia
lydia
Lydian
Lydie
Lyke
Lyn
Lynda
Lyndon
Lyndsey
Lynette
Lynn
lynn
Lynne
Lynsey
Lyon
Lysan
Lysanne
Lysbeth
Lysette
M
Maaike
maaike
Maaike
Maan
Maarten
maarten
Maarten-Jan
Maartje
maartje
Maartje
Maas
Maasje
maatje
Maatje
Maayke
Mabel
Mac
Mace
Macey
Macha
Machelina
Machiel
Machteld
Maciej
Mack
Mackenzie
Macy
Maddy
Made
Madee
Madelaine
Madelein
Madeleine
Madelene
Madelief
madelief
Madelief
Madelijn
Madelinde
Madeline
Madelon
Madelyn
Madhavi
Madhvi
Madieke
Madiha
Madina
Madison
Mads
Mady
Mae
Maeve
Magali
Magda
Magdalena
magdalena
Magdalena
Maggie
Maggy
Magnus
Maha
Mahad
Mahamed
Mahdi
maher
Maher
Mahir
Mahmoud
Mahmud
Mahmut
Mahsa
Mai
Maia
Maichel
Maick
Maickel
Maico
Maida
Maide
Maik
Maika
Maike
Maikel
maikel
Maikel
Maiko
Maiky
Maira
Maisam
Maissa
Maissae
Maite
Maj
Maja
Majda
Majdouline
Majella
Majid
Majida
Majorie
Makbule
Maks
Malaika
Malak
malak
Malak
Malcolm
Malena
Malik
Malika
Malin
Malinda
Malissa
Mallory
Maloe
Malon
Malou
Malte
Malu
Mamadou
Mana
Manal
manar
Manar
Manasse
mandy
Mandy
Manel
Manfred
Manish
Manisha
Manita
Manja
Manna
Mannes
Mannus
Mano
Manoah
Manoe
Manoek
Manolito
Manolya
Manon
manon
Manou
Manouck
Manouk
Manouschka
Manpreet
Mans
Mansour
Mansur
Manu
Manuel
Manuela
Manuella
Manus
Mara
Marah
Maral
Maran
marc
Marc
marcel
Marcel
Marcela
Marcelina
Marceline
Marcelino
Marcelis
Marcella
Marcelle
Marcellino
Marcellinus
marcellinus
Marcello
Marcellus
Marcelo
Marcha
Marchano
Marchella
Marchiano
Marchien
Marchiena
Marchje
Marcia
Marciano
Marcin
Marcio
Marck
marco
Marco
Marcos
Marcus
marcus
Marcus
Mare
Mareike
Mareille
Marein
Marek
Marel
Marell
Marelle
Maren
Marenne
Mareno
Marente
Marenthe
Maret
Marga
Margaret
Margareta
Margareth
margaretha
Margaretha
Margarethe
Margarita
Margaritha
Margaux
Margien
Margit
Margje
margje
Margo
Margot
Margreet
Margret
Margreta
Margretha
Margriet
Margrieta
Margrietha
Marguerite
Mari
Maria
maria
Maria
Mariah
Mariam
mariam
Mariama
Marian
marian
Marian
Mariana
Marianka
marianna
Marianna
Marianne
marianne
Marianne
Mariano
Marick
marie
Marie
Marie-Anne
Marie-Christine
Marie-Claire
Marie-Jose
Marieke
marieke
Marieke
Mariel
Mariella
marielle
Marielle
Mariëlle
mariëlle
Marie-Louise
Mariem
Marien
Mariet
Marieta
Marietje
Marietta
Mariette
Marigje
Marij
Marija
Marijana
Marije
marije
Marije
Marijke
marijke
Marijn
marijn
Marijn
Marijne
Marijntje
Marijtje
Marik
Marika
Marike
Mariken
Mariko
Marileen
Marilene
Marilou
Marilva
Marilyn
Marin
Marina
marina
Marina
Marinda
Marinde
Marine
Marinka
Marinke
Marino
Marinthe
Marinus
marinus
Mario
mario
Marion
marion
Maris
Marisa
Marisca
Marischa
Marise
Marisha
Marisja
mariska
Mariska
Marisol
Marissa
Marit
marit
Marit
Marita
Marith
Maritha
Maritte
Maritza
marius
Marius
Marja
marja
Marjam
marjan
Marjan
Marjanne
Marjella
Marjelle
Marjet
Marjo
Marjoke
marjolein
Marjolein
Marjoleine
Marjolijn
Marjolijne
Marjon
marjon
Marjorie
Marjory
Mark
mark
Mark-Jan
Marko
Markus
Marla
Marle
Marleen
marleen
Marlein
Marlena
Marlene
Marley
Marli
Marlie
Marlieke
Marlien
Marlies
Marlijn
Marlijne
Marlin
Marlinda
Marlinde
Marline
Marlisa
Marlise
Marlissa
Marlo
Marloe
marloes
Marloes
Marlon
Marlot
Marlotte
Marlou
Marlouk
Marlous
Marly
Marlyn
Marnick
Marnik
Marnix
Maroeska
Maron
Maroua
Marouan
Marouane
Maroucha
Marouscha
Marouschka
Marousha
Maroussia
Marre
Marretje
marretje
Marretje
Marrie
Marriet
Marrigje
Marrit
Marry
Marscha
Marsha
Marshall
Mart
Marta
Marte
marten
Marten
Martha
martha
Martha
Marthe
Marthijn
Marthijs
Martien
Martijn
martijn
Martijntje
Martika
Martin
martin
Martina
martina
Martina
martine
Martine
Martino
Martinus
martinus
Martinus
Martje
Marty
Martyn
Maruschka
marvin
Marvin
marwa
Marwa
Marwan
Marwin
mary
Mary
maryam
Maryam
Maryama
Maryan
Mary-Ann
Marye
Maryem
Marylou
Maryn
Maryse
Mas
Mascha
mascha
Masha
Masja
mason
Mason
Masoud
Massimiliano
Massimo
Master
Matea
Matej
Mateo
Mateusz
Mathe
Mathea
Matheus
Mathew
Mathias
mathias
Mathias
Mathieu
Mathijn
Mathijs
Mathilda
mathilda
Mathilda
Mathilde
Mathis
Mathyn
Mathys
Matias
Matijn
Matijs
Matilda
Matilde
Matin
Matisse
mats
Mats
Matt
Mattanja
matteo
Matteo
Matteus
Matthe
Matthea
Mattheus
mattheus
Mattheus
Matthew
Matthias
Matthieu
Matthijn
Matthijs
matthijs
Matthis
Matthys
Matti
Mattia
Mattias
Mattie
Mattijn
Mattijs
Mattis
Matts
Matty
Matz
Maud
maud
Maudi
Maudy
Mauk
Maura
Maureen
Mauri
maurice
Maurice
Mauricio
Maurien
Maurijn
Maurik
Mauritius
Maurits
maurits
Mauritz
Maurizio
Mauro
Maury
Mavis
Max
max
Maxim
maxim
Maxime
Maximiliaan
Maximilian
Maximiliano
Maximillian
Maximus
Maxine
Maxwell
Maxx
May
Maya
maya
Maya
Maybritt
May-Britt
Mayella
Mayk
Mayke
Maykel
Mayla
Maylin
Mayon
Mayra
Mayron
Maysa
Mayte
Mazen
Mazlum
Mea
Meagan
Meaghan
Mechelina
Mechteld
Medina
Medine
Medy
Meeke
Meera
mees
Mees
Meeuwis
Meg
Megan
Meggie
Meggy
Meghan
Mehdi
Mehmed
Mehmet
mehmet
Mehran
Mehtap
meike
Meike
Meindert
Meine
Meinke
Meint
Meinte
Meintje
Meis
Mel
Melani
Melania
melanie
Melanie
Melany
Melati
Melchior
Melda
Melek
Melih
Meliha
Melik
Melika
Melike
Melina
Melinda
Melis
Melisa
Melissa
melissa
Mellanie
Mellany
Melle
melle
Melle
Mellisa
Mellissa
Melloney
Melody
Melroy
Mels
Meltem
melvin
Melvin
Melvyn
Melwin
Memet
Mendel
Mendy
Menekse
Menke
Menko
Menna
Menne
Menno
menno
Menno
Menthe
Menzo
Meral
Mercedes
Mercy
Merdan
Meredith
Merel
merel
Meri
Meriam
Merian
Meric
Meriem
Merijn
Merit
Merith
Merle
Merlijn
Merlijne
Merlin
Merlyn
Mert
Mertcan
Merve
merve
Mervin
Mervyn
Merwin
Meryam
Meryem
Meryl
Mesut
Meta
Mete
Metehan
Metin
Metje
Mette
Mevlut
Mex
Mexx
Meyke
M'hamed
M'Hamed
Mia
mia
Micaela
Micah
Micha
Michael
michael
Michael
Michaela
Michail
Michal
Micheal
Michel
michel
Michela
Michelangelo
Michele
Micheline
Michell
Michella
michelle
Michelle
michiel
Michiel
Michon
Michou
Mick
mick
Mickael
Mickel
Mickey
Micky
Midas
Mieke
Miel
Mient
Mientje
Mies
Mignon
Miguel
Mihriban
Mijke
Mijndert
Mijntje
Mijs
Mik
mika
Mika
Mikael
Mikai
Mikail
Mikal
Mikayla
Mike
mike
Mikel
Mikey
Mikhail
Miki
Mikki
Miko
Mila
mila
Mila
Milad
milan
Milan
Milana
Milano
Milco
Milena
Milene
Milenka
Miles
Milica
Milika
Milka
Milko
Milla
Mille
Millie
Milly
milo
Milo
Miloe
Milos
milou
Milou
Miloud
Milouda
Milton
Mimi
Mimoun
Mimouna
Mimount
Min
Mina
Mindert
Mindy
Mine
Ming
Mingus
Minh
Mink
Minka
Minke
Minne
Minoesch
Minou
Minouche
Minouk
Miquel
Mira
Mirac
Miran
miranda
Miranda
Miray
Mirco
Mireille
mireille
Mireille
Mirela
Mirella
mirella
Mirella
Mirelle
miriam
Miriam
Mirian
Mirja
mirjam
Mirjam
Mirjan
Mirjana
Mirko
Mirle
Mirna
Mirne
Miro
Miron
Miroslav
Mirre
Mirsad
Mirte
mirthe
Mirthe
Miryam
Mirza
Mischa
mischa
Misha
Misja
Misty
Mitch
Mitchel
Mitchell
mitchell
Mitra
Mitzi
Mitzy
Mo
Moad
Moana
Moesha
Mohamad
Mohamed
mohamed
Mohammad
mohammed
Mohammed
Mohamoud
Mohamud
Mohcine
Mohini
Mohsin
Moira
Moise
Moises
Molly
Mona
Monica
monica
Monica
Moniek
Monika
Monique
monique
Monir
Monisha
Monja
Montana
Moon
Moos
Morad
Morena
Moreno
Morgan
Moritz
Morris
morris
Morris
Morrison
Morsal
Morten
Moses
Moshe
Moska
Mostafa
Mostapha
Mouaad
Mouad
Mouhsine
Moulay
Mouna
Mounaim
Mounia
Mounir
Mounssif
Mourad
Moussa
Moustafa
Moustapha
Mozes
Muammer
Muberra
Mucahid
Mucahit
Muge
Muhamed
Muhammad
Muhammed
muhammed
Muhammet
Muharrem
Muhittin
Muhsin
Mukaddes
Mukremin
Muna
Munevver
Munira
Murad
Murat
Muriel
Murielle
Musa
Musab
Muslum
Mustafa
mustafa
Mustapha
Mutlu
Muzaffer
Muzeyyen
My
Myke
Myla
Mylan
Mylene
Mylo
Mylou
Myra
Myriam
Myrle
Myrna
Myrne
Myron
Myrte
Myrthe
myrthe
Naara
naatje
Naatje
Nabil
Nabila
Naciye
Nada
Nadeche
Nadeem
Nadege
Nadi
Nadia
nadia
Nadia
Nadiah
Nadie
Nadieh
Nadim
Nadin
Nadina
Nadine
nadine
Nadir
Nadira
Nadiya
Nadja
Naduah
Nady
Nadya
Nafisa
Naftali
Nagihan
Nahid
Nahom
Nail
Naila
Naim
Naima
naima
Naima
Naime
Najat
Najia
Najib
Najiha
Najim
Najima
Najla
Najlae
Najma
Najoua
Najwa
Nakita
Nalini
Nalinie
Nan
Nana
nancy
Nancy
Nanda
Nander
Nandi
Nandini
Nando
Nandy
Nanet
Nanette
Nanine
Nanja
Nanke
Nanko
Nanna
Nanne
Nanneke
Nannette
Nanno
Nanny
Nanou
Nanouk
Naomi
naomi
Naomie
Naomy
Naoual
Naouar
Naoufal
Nard
Narek
Naresh
Narges
Nargis
Nariman
Narin
Narjiss
Nash
Nasim
Nasima
Nasir
Nasira
Nasr
Nasra
Nasreddine
Nasr-Eddine
Nasser
Nassim
Nassima
Nassir
Nassira
Natacha
Natali
Natalia
Natalie
Natalija
Natalja
Nataly
Natalya
Natan
Natanja
Natasa
Natascha
natascha
Natascha
Natasha
natasja
Natasja
Nathalia
nathalie
Nathalie
Nathalja
Nathaly
nathan
Nathan
Nathanael
Nathaniel
Nathanja
Nathasja
Naud
Naut
Navajo
Naveen
Navid
Navin
Nawal
Nawfal
Nawid
Nawien
Nawin
Nayomi
Naz
Nazan
Nazanin
Nazar
Nazha
Nazia
Nazife
Naziha
Nazik
Nazim
Nazl
Nazli
Nazmiye
Neal
Nebahat
Necati
Necip
Necla
Necmettin
Neda
Nedim
Neelam
Neele
Neelke
neeltje
Neeltje
Nefise
Neha
Nehemia
Neil
Nejla
Nele
Nelie
Neline
Nelis
Nella
Nelleke
Nellie
Nelly
nelly
Nelson
Nemanja
Nemo
Nena
Nenad
Neo
Neomi
Nerena
Nergiz
Neriman
Nerissa
Nermin
Nese
Nesibe
Neslihan
Nesrin
Nesrine
Neva
Nevil
Neville
Nevin
Nevra
Nevzat
Nezha
Ngoc
Niall
Niamh
Nic
Nica
Nicci
Nicholas
Nick
nick
Nickey
Nicki
Nickolai
Nickolas
Nicky
nicky
Nicky
nico
Nico
Nicol
Nicola
Nicolaas
nicolaas
Nicolai
Nicolas
Nicolay
nicole
Nicole
Nicolet
Nicoletta
nicolette
Nicolette
Nicolien
Nicoliene
Nicolina
Nicoline
Nicolle
Nida
Nidal
Nieck
Niek
niek
Nieke
Niel
niels
Niels
Niene
Nienke
nienke
Nienke
Niesje
Nieske
Nigel
Nighel
Nihad
Nihal
Nihat
Nijs
Nik
Nika
Nikai
Nikay
Nike
Nikee
Nikhil
Niki
Nikie
Nikita
nikita
Nikki
nikki
Nikki
Nikkie
Nikky
Niklas
Niko
Nikola
Nikolaas
Nikolai
Nikolaj
Nikolaos
Nikolas
Nikolina
Nikos
Nila
Nilab
Nilay
Nilesh
Nilgun
Nilofar
Niloufar
Nils
Nilufer
Nima
Nimet
Nimo
Nina
nina
Nina
Ninah
Nine
Nini
Ninja
Ninke
Nino
Ninon
Ninthe
Niobe
Nirvana
Nisa
Nisanur
Nisha
Nisrin
Nisrine
Nissrine
Nita
Nitesh
Nitin
Nivard
Niyazi
Nizar
Noa
noa
Noa
Noach
noah
Noah
Noam
Noe
Noel
Noelia
Noell
Noella
Noelle
Noemi
Noemie
Noer
Noha
Nol
Nola
Nolan
Nomi
Nona
noor
Noor
Noortje
noortje
nora
Nora
norah
Norah
Noralie
Noraly
Norbert
Norbertus
Nordin
Nore
Noreen
Nori
Norine
Norma
Norman
Nouaman
noud
Noud
Noufissa
Nouh
Nouhaila
Nouk
Noumidia
Nour
nour
Nour
Noura
Nourdin
Nourdine
Noureddine
Nour-Eddine
Nouri
Nouria
Noury
Nouschka
Nout
nova
Nova
Nuh
Numan
Nuno
Nur
Nura
Nuran
Nuray
Nurcan
Nurdan
Nurettin
Nurgul
Nurhan
Nuri
Nuria
Nuriye
Nursel
Nurten
Nurullah
Nusret
Nyah
Nydia
Nygel
Nyncke
Nynke
Oane
Obbe
Obed
Ocean
Oda
Odessa
Odette
Odile
Odilia
Odin
Oebele
Oeds
Oege
Oene
Ogulcan
Ogun
Oguz
Oguzhan
Okan
Okke
Okko
Oktay
Olaf
Olav
Olcay
ole
Ole
Oleg
Olga
Olger
Oliver
oliver
Olivia
olivia
Olivia
Olivier
olivier
Olle
Olmo
Olof
Omaima
Omaira
omar
Omar
Omayma
Omayra
Omer
Omid
Omri
Omur
Onder
Onne
Onno
Onur
Oona
Orcun
Orhan
Orhun
Oriana
Orin
Orion
Orkun
Orla
Orlando
Ornella
Orpheo
Orrin
Orry
Osama
Oscar
oscar
Oskar
Osman
Ossama
Ot
Othman
otis
Otis
Otman
Otmar
Otte
Otto
otto
Otto
Ouafa
Ouafaa
Ouafae
Ouahiba
Ouail
Oualid
Ouarda
Ouardia
Ouassila
Ouassim
Ouassima
Ouiam
Ouidad
Ouissal
Ouissam
Oumaima
oumaima
Oumaima
Oumayma
Oumnia
Ousama
Oussama
oussama
owen
Owen
Ozan
Ozcan
Ozge
Ozgul
Ozgur
Ozhan
Ozkan
Ozlem
Oznur
Pablo
Paco
Paddy
Paige
Pakize
Paloma
Pam
Pamela
pamela
Panagiotis
Paola
Paolo
Parel
Paris
Parisa
Parsa
pascal
Pascal
Pascale
Pascalle
Paschalis
Pasquale
Patric
Patrice
Patricia
patricia
Patricia
Patricius
Patrick
patrick
Patriek
Patrik
Patrique
Patrycja
Patryk
Patty
paul
Paul
Paula
paula
Paulette
Paulien
Pauliene
Paulina
paulina
Paulina
Pauline
pauline
Pauline
Paulo
Paulus
paulus
Paulus
Pavan
Pavel
Pawan
Payam
Pearl
Pebbles
Pedram
Pedro
Peer
Peggy
Pei
Pelin
Pelle
Penelope
Penny
Pepe
Pepijn
pepijn
Pepita
Per
Percy
Perihan
Perla
Pernilla
Pernille
Perry
Petar
peter
Peter
Peter-Jan
Peterke
Peternella
Peter-Paul
Petertje
Petra
petra
Petri
petronella
Petronella
Petros
petrus
Petrus
Petter
Phaedra
Pharrell
Phebe
Phil
Phileine
Philine
philip
Philip
Philipp
Philippa
philippa
Philippa
Philippe
Philippina
Philippine
philippus
Philippus
Phillip
Philomena
Phoebe
Phuong
Phylicia
Phyllis
Pia
Pieke
Pien
Pier
Pierre
Piet
piet
Piet
Pieta
pieter
Pieter
Pieter-Bas
Pieterdina
Pieter-Jan
Pieterke
Pieternel
Pieternella
pieternella
Pieternella
pietertje
Pietertje
Pietje
pietje
Pietro
Pietronella
Pietsje
Pijke
Pilar
Pim
pim
Pim
Pinar
Piotr
Pip
Pippa
Pippi
Piter
Pjotr
Pleun
pleun
Pleun
Pleuni
Pleunie
Pleuntje
Pnar
Pol
Polat
Polle
Polly
Pomme
Pooja
Poonam
Popke
Prashant
Precilla
Precious
Prescilla
Preston
Pricilla
Prince
Princess
Prisca
Priscella
Priscilla
priscilla
Priscilla
Priscillia
Prisilla
Priya
Priyanka
Prosper
Prya
Puck
puck
Puck
Pui
Puja
Puk
Purdey
Purdy
Pyke
Pytsje
Qasim
Quang
Queenie
Queeny
Quenten
Quentin
Querijn
Querine
Quido
Quin
Quincey
Quincy
Quinn
quinn
Quinn
Quint
Quinta
Quinte
Quinten
quinten
Quinten
Quintijn
Quintin
Quinton
Quintus
Quinty
quinty
Quirien
Quirijn
Quirina
Quirine
Quirinus
Quoc
R
Rabab
Rabia
Rabiaa
Rabie
Rabiya
Rabiye
Racha
Rachael
rachel
Rachel
Rachell
Rachella
Rachelle
rachid
Rachid
rachida
Rachida
Radboud
Radha
Radhika
Radi
Radia
Radouane
Radwan
Raemon
Raf
Rafael
Rafaela
Rafaella
Raff
Raffaella
Rafi
Rafik
Rafika
Rafiq
Rafke
Ragini
Ragna
Rahel
Rahim
Rahima
Rahime
Rahma
Rahman
Rahul
Raihana
Railey
Raimon
Raimond
Rainer
Rainier
Raisa
Raisha
Raissa
Raiza
Raj
Raja
Rajaa
Rajae
Rajeev
Rajesh
Rajiv
Rajko
Rajni
Rajshri
Rakesh
Ralf
Ralph
Raman
Ramazan
Rami
Ramin
Ramiro
Ramiz
Ramla
Ramon
ramon
Ramona
ramona
Ramses
Ramy
Ramzi
Ramzy
Ran
Rana
Randa
Randall
Randell
Randi
Randolf
Randolph
randy
Randy
Rani
Rania
Ranil
Ranya
Raoel
Raouf
Raoul
raoul
Raoul
Raphael
Raquel
Rasha
Rashid
Rashida
Rashied
Rashmi
Rasim
Rasit
Rasmus
Ratna
Rauf
Raul
Raveena
Raven
Ravenna
Ravi
Ravian
Ravin
Ravindra
Ravish
Ravza
Rawan
Rawi
Rawien
Ray
Raya
rayan
Rayan
Rayane
Rayen
Raymon
Raymond
raymond
Raymondo
Rayn
Rayna
Raynor
Rayshree
Rayvano
Razia
Raziye
Reamon
Rebeca
rebecca
Rebecca
Rebekka
Recep
Reda
Redmar
Redmer
Redouan
redouan
Redouan
Redouane
Reduan
Redwan
Reece
Reem
Reena
Reggie
Reggy
Regilio
Regillio
Regina
regina
Reginald
Regine
Reijer
Reimer
Rein
Reina
Reinald
Reinaldo
Reinard
Reinardus
Reinate
Reinder
reinder
Reindert
Reineke
Reinhard
Reini
Reinie
reinier
Reinier
Reinoud
Reinout
Reint
Reintje
Reitze
Relinde
Rembrandt
Remco
remco
Remi
Remie
Remigius
Remke
Remko
remko
Remmelt
Remmert
Remo
Remon
Remy
Remzi
Remziye
Rena
Renaldo
Renata
Renate
renate
Renate
Renato
Renatus
Renco
Rene
rene
Rene
rené
René
Renee
renee
Renée
renée
Renger
Renier
Renko
Reno
rens
Rens
Rense
Rensje
renske
Renske
Renso
Renu
Renuka
Renz
Renze
Renzo
Resa
Reshma
Resi
Resul
Resy
Reuben
Revelino
Rewien
Rex
Reyer
Reyhan
Reynaldo
Reza
Rhandy
Rhea
Rhianne
Rhiannon
Rhode
Rhona
Rhonda
Rhys
Ria
Riad
Rian
Riana
Rianca
Rianda
Rianka
Rianna
Rianne
rianne
Riaz
ricardo
Ricardo
Ricardus
Riccardo
Ricco
Richano
Richard
richard
Richard
Richardus
Richel
Richella
Richelle
Richenel
Richie
Richmond
Richtje
Rick
rick
Rickey
Ricky
ricky
Rico
Rida
Ridge
Ridouan
Ridvan
Ridwan
Rieke
Riekelt
Riekje
Rieks
Rielle
Riemer
Riemke
Riemkje
Rien
Rieneke
Rienk
Rienke
Rients
Ries
Riette
Rieuwert
Rifat
Rifka
Rigtje
Rihab
Riham
Rijk
Rijkje
rik
Rik
Rika
Rikje
Rikke
Rikkert
Rikst
Rikus
Rilana
Riley
Rim
Rima
Rimke
Rimmer
Rina
Rinaldo
Rindert
Rineke
Rinesh
Ringo
Rink
Rinke
Rino
Rins
Rinse
Rinske
Rinskje
Rintje
Rinus
Rinze
Rio
Rishan
Rishi
Rishma
Rita
rita
Rita
Ritchie
Ritchy
Ritesh
Ritish
Ritske
Riva
Rivaldo
Rivano
Rivelino
River
Rivka
Rixt
Riza
Rizwan
Rkia
Roald
roan
Roan
Roanne
Rob
rob
Robbe
robbert
Robbert
Robbert-Jan
Robbie
Robbin
Robby
Robel
Roben
Robert
robert
Roberta
Robertino
Robert-Jan
Roberto
roberto
Roberto
Robertus
robertus
Robertus
Robi
Robin
robin
Robin
Robina
Robine
Robrecht
Roby
Robyn
Rocco
Rochdi
Roche
Rochella
Rochelle
Rochus
Rocky
Roderick
Roderik
Rodger
Rodi
Rodin
Rodney
Rodny
Rodrigo
Rody
Roef
Roel
roel
Roel
Roeland
Roelant
Roelf
Roelfien
Roelfina
Roelie
Roelien
Roelina
Roelinda
Roeline
Roelle
Roelof
roelof
Roelof
Roelofje
Roemer
Roger
roger
Roger
rogier
Rogier
Rohan
Rohini
Rohit
Rojda
Rojin
Rokus
Roland
roland
Roland
Rolanda
Rolando
Rolf
Rolien
Rolina
Rolinda
Rolinde
Roline
Rolinka
Roma
Romain
Romaisa
Romaisae
Romaissa
Romaissae
Roman
Romana
Romano
Romany
Romar
romario
Romario
Romay
Romaysa
Rombout
Rome
Romee
Romek
Romello
Romeo
Romero
Romi
Romie
Romijn
Romilda
Romina
Romke
Romkje
Romme
Rommert
Rommy
Romy
romy
Romy
Ron
Rona
ronald
Ronald
Ronaldo
ronaldus
Ronaldus
Ronan
Roni
Ronin
Ronja
Ronnie
Ronny
Rony
Roos
roos
Roos
Roos-Anne
Roosje
Roosmarie
Roosmarijn
Roos-Marijn
Rory
Rosa
rosa
Rosa
Rosali
Rosalia
Rosalie
rosalie
Rosalie
Rosalien
Rosalin
Rosalina
Rosalinda
Rosalinde
Rosaline
Rosaly
Rosalyn
Rosalynn
Rosan
Rosana
Rosanna
Rosanne
Rosario
Rose
Roseanne
Roselie
Roselien
Roselinde
Roseline
Rosella
Roselyn
Rosemarie
Rosemarije
Rosemarijn
Rosemary
Roshan
Roshni
Roshnie
Rosie
Rosina
Rosita
Ross
Roswitha
Roumaissa
Rover
Rowan
Rowana
Rowanne
Rowdy
Rowen
Rowena
Rowenna
Rowi
Rowie
Rowin
Rowina
Rowy
Roxan
Roxana
Roxane
Roxanna
Roxanne
roxanne
Roxanne
Roxy
Roy
roy
Roya
Royce
Roza
Rozan
Rozanne
Rozemarie
Rozemarijn
Rozerin
Rozina
Ruan
Ruard
Ruben
ruben
Rubi
Rubin
Rubina
Ruby
Ruchama
Rudger
Rudi
rudi
Rudi
Rudie
Rudmer
Rudo
rudolf
Rudolf
Rudolfus
Rudolph
Rudolphus
rudy
Rudy
Rueben
Rufus
Rui
Rukiye
Rumeysa
Runa
Rune
Rushil
Russell
rutger
Rutger
Ruth
ruth
Ruth
Ruthger
Rutmer
Ruud
ruud
Ruurd
Ruveyda
Ruwan
Ruya
ryan
Ryan
Ryanne
Rylana
Ryo
Ryon
S
Saad
Saadet
Saadia
Saagar
Saakje
Saapke
Saar
saar
Saartje
Saba
Sabah
Saban
Saber
Sabien
Sabiha
Sabina
Sabine
sabine
Sabir
Sabira
Sabri
Sabria
Sabrien
Sabrin
Sabrina
sabrina
Sabrina
Sabrine
Sabriye
Sacha
Sadaf
Sade
Sadhana
Sadia
Sadie
Sadik
Saeed
Safa
Safaa
Safae
Safak
Saffira
Safia
Safiera
Safina
Safira
Safiya
Safiye
safouan
Safouan
Safouane
Safwan
Sagal
Sagar
Sahar
Sahel
Sahil
Sahila
Sahin
Sahra
Sai
Said
Saida
Saif
Saifeddine
Saima
Saira
Sait
Sake
Sakina
Sakine
Sal
Salah
Salaheddine
Salah-Eddine
Salar
Saleh
Salem
Salih
Saliha
Salim
Salima
Salina
Sally
salma
Salma
Salman
Salome
salomon
Salomon
Saloua
Salsabil
Salvador
Salvatore
Salwa
sam
Sam
sam
Samah
Saman
Samanta
Samantha
samantha
Samantha
Samar
Samara
Samatar
Samed
Sameer
Samentha
Samer
Samet
sami
Sami
Samia
Samiha
Samina
Samir
samir
Samir
Samira
samira
Samira
Samirah
Sammie
Sammy
Sammy-Jo
Samora
Samra
Samsam
Samson
samuel
Samuel
Samy
Samya
Samyra
Sana
Sanaa
Sanae
Sanaz
Sancho
Sandeep
Sander
sander
Sander
Sanderijn
Sandhia
Sandhya
Sandia
Sandor
Sandra
sandra
Sandra
Sandrina
Sandrine
Sandro
sandy
Sandy
Sanel
Sanela
Sangeeta
Sania
Saniye
Sanja
Sanjana
Sanjay
Sanjeev
Sanjin
Sanna
Sannah
Sanne
sanne
Sanneke
Sanny
Santana
Santiago
Santino
Santosh
Santusha
Sanya
Sape
Saphira
Sapna
Sara
sara
Sara
Sarafina
Sarah
sarah
Sarah
Sarah-Jane
Sarai
Saranda
Sare
Sarella
Sarena
Sari
Sarie
Sarina
Sarinah
Sarissa
Sarita
Saritha
Saron
Sarra
Sasa
Sascha
Sasha
Sasja
saskia
Saskia
Satish
Saul
Savana
Savanna
Savannah
Savanne
Savas
Saverio
Savine
Saya
Sayed
Sayenna
Sayenne
Sayfeddine
Scarlet
Scarlett
Scott
Scotty
Sean
Sebahat
Sebas
sebastiaan
Sebastiaan
Sebastian
Sebastianus
Sebastien
Sebnem
Secil
Seda
Sedanur
Sedat
Sedef
Seema
Sef
Sefa
Sefanja
Sefer
Sefika
Seger
Seher
Seine
Sejla
Sela
Selahattin
Selami
Selcan
Selcuk
Selda
Selen
Selena
Selenay
Selene
Selim
Selin
Selina
Selinay
Selinde
Seline
Selma
selma
Selman
Selvi
Selwin
Selwyn
Sem
sem
Sem
Sema
Semanur
Semi
Semih
Semiha
Semir
Semira
Semmy
Semra
Sen
Sena
Senad
Senanur
Senay
Senem
Senn
senn
senna
Senna
Sennah
Senne
Senta
Sep
Sepp
Seppe
Sera
Serah
Seraja
Serana
Serano
Serap
Seray
Seraya
Sercan
Serdal
Serdar
Seren
Serena
Serge
serge
Serge
Sergei
Sergej
Sergen
Sergi
Serginho
Serginio
Sergio
Serhan
Serhat
Serife
Serina
Serkan
Serpil
Serra
Sertac
Sertan
Servaas
Serve
Servet
Seth
Seval
Sevcan
Sevda
Sevde
Sevgi
Sevil
Sevilay
Sevim
Sevinc
Sevket
Sevval
Seyda
Seyed
Seyfullah
Seyhan
Seyit
Seyma
Seyyed
Seyyid
Sezen
Sezer
Sezgin
Shabana
Shabnam
Shade
Shadi
Shady
Shah
Shahd
Shahid
Shahin
Shahira
Shai
Shaila
Shailesh
Shaima
Shaina
Shaira
Shairon
Shakir
Shakira
Shakur
Shalina
Shalini
Shalinie
Shamara
Shamir
Shamira
Shan
Shana
Shanaya
Shane
Shania
Shanice
Shaniqua
Shanita
Shanna
Shannah
Shanne
Shannen
Shannon
Shanon
Shanti
Shantie
Shanty
Shanya
Shaquille
Shara
Sharan
Sharda
Sharde
Shareen
Sharella
Sharelle
Sharen
Sharena
Shari
Sharida
Sharief
Sharif
Sharifa
Sharin
Sharina
Sharinda
Sharine
Sharissa
Sharita
Sharleen
Sharlene
Sharmaine
Sharmarke
Sharmayne
Sharmila
Sharon
sharon
Sharon
Sharona
Sharonna
Sharonne
Sharony
Sharron
Shaun
Shauna
Shauni
Shauny
Shawn
Shawnee
Shawny
Shay
Shaya
Shayan
Shayenna
Shayenne
Shayla
Shayna
Shayne
Shazia
Sheena
Sheetal
Sheila
Shelby
Sheldon
Shelina
Shelley
Shelly
Shemara
Sheng
Shenna
Sheranie
Shereen
Sherena
Sherida
Sherien
Sherif
Sherilyn
Sherin
Sherina
Sherman
Sherona
Sherwin
Sheryl
Shi
Shiela
Shifra
Shilan
Shima
Shira
Shireen
Shirin
Shirley
shirley
Shirley
Shirly
Shiva
Shivam
Shivan
Shivani
Shivanie
Shiwani
Shona
Shreya
Shu
Shukri
Shun
Si
Sian
Siard
Sibel
Sibren
Sicco
Sid
Sidar
Sidi
Sidney
Sido
Sidra
Sieb
Siebe
Siebrand
Siebren
Siebrigje
Sieds
Sieger
Siegfried
Siegrid
siem
Siem
Sieme
Siemen
Siemon
Sien
Siena
Sienna
Sientje
Siep
Sierd
Sierk
Sierra
Siert
Sieta
Siete
Sietse
Sietske
Sietze
Sieuwerd
Sieuwke
Sifra
Sigourney
Sigrid
Siham
Sija
Sijbrand
Sijbren
Sije
Sijgje
Sijke
Sijmen
Sijmon
Sijtje
Sijtse
Sijtske
Sijtze
Sikke
Sikko
Sil
Sila
Silas
Silja
Silje
Silke
Silva
Silvan
Silvana
Silvano
Silver
Silvester
silvia
Silvia
Silvian
Silvie
Silvijn
Silvio
Silvy
Sim
Sima
Simcha
Simen
Simeon
Simge
Simon
simon
Simon
Simona
Simone
simone
Simone
Simran
Sin
Sina
Sinan
Sindy
Sinead
Sinem
Sinne
Siobhan
Sion
Sipke
Sippie
Sira
Siri
Sirin
Siska
Sissi
Sissy
Sita
Siu
Sivan
Sivar
Sjaak
Sjanne
Sjeel
Sjef
Sjeng
Sjieuwke
Sjimmie
Sjirk
Sjoerd
sjoerd
Sjoerdje
Sjoerdtje
Sjoert
Sjon
Sjonnie
Sjors
Sjouke
Sjoukje
Sjuul
Skander
Skip
Sky
Skye
Skylar
Sla
Slimane
Smahane
Smail
Soeradj
Soeraya
Soesja
Sofia
sofia
Sofian
Sofiane
sofie
Sofie
Sofieke
Sofyan
Sohaib
Sohail
Sohaila
Sohrab
Solaiman
Solana
Solane
Solange
Soleil
Solmaz
Solomon
Solveig
Soma
Somaya
Somia
Sona
Sonali
Sonam
Sonay
Soner
Songul
Sonia
Sonja
sonja
Sonja
Sonny
Sonya
Sophia
sophia
Sophie
sophie
Soraja
soraya
Soraya
Soren
Soscha
Souad
Soufian
Soufiane
soufyan
Soufyan
Soufyane
Souhail
Souhaila
souhaila
Souhaila
Souhailla
Souhayla
Soukaina
Soukayna
Soulaiman
Soulaimane
Soumaya
Soumia
Souraya
Spencer
Spike
Splinter
Stacey
Stach
Stacy
stan
Stan
Stanislav
Stanley
Stans
Steef
Stef
stef
Stef
Stefan
stefan
Stefani
Stefania
Stefanie
Stefano
Stefanos
Stefanus
Stefany
Steff
Steffan
Steffanie
Steffany
Steffen
Steffi
Steffie
Steffy
Steije
Steijn
Stein
Stella
stella
Stella
Sten
Stephan
stephan
Stephan
Stephana
Stephane
Stephania
stephanie
Stephanie
Stephano
Stephanus
Stephany
Stephen
Stern
Sterre
sterre
Sterre
Stevan
Steve
Steven
steven
Steventje
Stevie
Steyn
Stian
Stientje
Stijn
stijn
Stijntje
Stoffel
Stoffer
Storm
Stuart
Styn
Su
Suad
Suat
Sude
Sudenaz
Sue
Sue-Ann
Sueda
Suheda
Suheyla
Sujata
Sukran
Sukru
Sule
Suleika
Suleman
Suleyman
Sultan
Suman
Sumaya
Sumeya
Sumeyra
Sumeyya
Sumeyye
Summer
Suna
Sunaina
Sundus
Sunil
Sunita
Sunniva
Sunny
Sura
Suradj
Suraj
Suraya
Sureyya
Surya
Susan
susan
Susana
Susanna
susanna
Susanna
Susannah
susanne
Susanne
Susette
suus
Suus
Suzan
Suzana
Suzanna
Suzanne
suzanne
Suze
suze
Suzet
Suzette
Suzie
Suzy
Svea
Sven
sven
Svenja
Sverre
Svetlana
Sweder
Swen
Syb
Sybe
Sybrand
Sybren
Sybrich
Sydney
Syed
Syeda
Syenna
Syl
Sylke
Sylvain
Sylvan
Sylvana
Sylvano
Sylvester
Sylvia
sylvia
Sylvian
Sylvie
Symen
Symon
Synthia
Syreeta
Sytse
Sytske
Sytze
Tabe
Tabita
Tabitha
Taco
Taede
taeke
Taeke
Taha
Tahir
Tahira
Tahmina
Tahnee
Tahsin
Take
Tako
Talha
Talia
Talip
Talisa
Talisha
Talita
Talitha
Tamana
Tamar
Tamara
tamara
Tamarah
Tamer
Tamika
Tamimount
Tamira
Tamme
Tammo
Tammy
Tan
Taner
Tania
Tanika
Tanisha
Tanita
Tanja
tanja
Tanja
Tanju
Tanne
Tanneke
Tannetje
Tanno
Tansu
Tanya
Taoufik
Tara
tara
Tarah
Taran
Tarek
Tarik
Tariq
Tark
Tarkan
Taro
Tasha
Tatiana
Tatjana
Tatum
Tayfun
Taylan
Taylor
Tea
Teake
Teatske
Ted
Teddie
Teddy
Teije
Tein
Teis
Teodora
Teoman
Terence
Teresa
Terra
Terrence
Terri
Terry
Tes
Teska
Teske
tess
Tess
Tessa
tessa
Tesse
Tessel
Tessie
Tessy
Tetje
Tetske
Teun
teun
Teuna
Teuni
Teunie
teunis
Teunis
Teunisje
Teuntje
teuntje
Teuntje
Teus
Tevfik
Tevin
Tex
Thaisa
Thalia
Thalina
Thalissa
Thalita
Thamar
Thamara
Thanh
Thara
Thari
thea
Thea
Theadora
Thecla
Thekla
Thelma
Theo
theo
Theo
Theodoor
theodoor
Theodoor
Theodor
Theodora
theodora
Theodore
Theodorus
theodorus
Thera
Theresa
Therese
theresia
Theresia
Thessa
Theun
Theunis
Thi
Thiago
Thibaud
Thibault
Thibaut
Thieme
Thiemen
Thiemo
Thierry
Thies
Thieu
Thije
Thijm
Thijme
Thijmen
thijmen
Thijmen
Thijn
thijs
Thijs
Thim
Thimo
Thimon
Thirsa
Thirza
Thobias
Thom
thomas
Thomas
Thommy
Thorben
Thorsten
Thu
Thuur
Thuy
Thymen
Thymo
Thyra
Thyrza
Thys
Tia
Tiago
Tialda
Tiamo
Tian
Tiana
Tiara
Tibbe
Tibo
Tibor
Ticho
Tico
Tiddo
Tido
Tiede
Tieme
Tiemen
Tiemo
ties
Ties
Tietje
Tiffany
tiffany
Tiffany
Tigo
Tijana
Tijani
Tije
Tijl
Tijm
Tijme
Tijmen
tijn
Tijn
Tijs
Tika
Tilly
tim
Tim
Timber
Timen
Timme
Timmie
Timmo
Timmy
Timo
timo
Timon
Timoteus
Timotheus
timothy
Timothy
Timur
Tin
Tina
Tine
tine
Tineke
Ting
Tinka
Tinke
Tino
Tinus
Tiny
Tirsa
Tirza
Tirzah
Tisha
Titia
Titus
Tiziana
Tjade
Tjalle
Tjalling
Tjarco
Tjarda
Tjardo
Tjark
Tjarko
Tjebbe
Tjeerd
Tjerk
tjerk
Tjerry
Tjesse
Tjeu
Tjibbe
Tjipke
Tjisse
Tjitse
Tjitske
Tjitte
Tjitze
Tjomme
Tobi
Tobias
tobias
Tobie
Toby
Toine
Toke
Tolga
Tolgahan
Tolunay
Tom
tom
Tomas
Tomasz
Tomer
Tomislav
Tommie
Tommy
Ton
Toni
Tonia
Tonnie
Tonnis
Tonny
Tony
Toos
Tooske
Torben
Tori
Torsten
Tos
Tosca
Toufik
Touraya
Touria
Tracey
Tracy
Travis
Tren
Trevor
Trienke
Trientje
trientje
Trientje
Trijnie
Trijntje
trijntje
Trinity
Trisha
Tristan
tristan
Tristen
Trix
Tromp
Troy
Trudy
Trung
truus
Truus
Trynke
Tryntsje
Tseard
Tsjerk
Tuan
Tuana
Tuba
Tufan
Tugay
Tugba
Tugce
Tugrul
Tulay
Tulin
Tuna
Tunahan
Tuncay
Turan
Turgay
Turgut
Turkan
Tuur
Tuyet
twan
Twan
Tyara
Tyas
Tycho
Tygo
tygo
Tyler
Tymen
Tymo
Tymon
Tyra
Tyrell
Tyrese
Tyron
Tyrone
Tyrza
Tyson
Ubah
Udo
Ufuk
Ugur
Uilke
Ulas
Ulbe
Ulku
Ulrich
Ulrike
Uma
Umar
Umit
Ummu
Ummugulsum
Ummuhan
Umran
Umut
Una
Unal
Ursula
ursula
Ursula	
Urvin
Usama
Usman
Vadim
Vahid
Valencia
Valencio
valentijn
Valentijn
Valentin
Valentina
valentina
Valentina
Valentine
Valentino
Valeria
Valerie
Valerio
Valery
Valesca
Valeska
Vallery
Van
Vandana
Vanessa
vanessa
Vanisha
Vanita
Vanity
Vanja
Vanya
Varisha
Varsha
Varun
Vasco
Vasiliki
Veda
Vedat
Vedran
Veere
veerle
Veerle
Veli
Venice
Vera
vera
Vere
Verena
Vernon
Veron
Verona
Veroni
Veronica
veronica
Veronica
Veronie
Veroniek
Veronika
Veronique
Vesna
Vesper
vesper
Veysel
Vianne
Vibeke
Vic
Vicky
Vico
Victor
victor
Victoria
Victorine
Vidar
Vidya
Vienna
Vienne
Viet
Viggo
Vigo
Vijay
Vikash
Vikram
Viktor
Viktoria
Vildan
Vin
Vinay
Vince
vince
Vince
Vincent
vincent
Vincent
Vincentius
Vincenzo
Vinesh
Vinnie
Vinny
Vinod
Viola
Violet
Violeta
Violetta
Violette
Viona
Viresh
Virgil
Virgill
Virginia
Virginie
Vishaal
Vishal
Vishnu
Vita
Vito
Vittorio
Vivian
Viviana
Viviane
Vivianne
Vivien
Vivienne
Vladimir
Volkan
Volkert
Vonne
Vural
Waasin
waasin
Wael
Wafa
Wafaa
Wafae
Wahiba
Wahid
Wai
Wail
Waldo
Walid
Walt
Walter
Walterus
Walther
Waltherus
Wan
Wanda
Wandana
Wander
Wanisha
Wanita
Wannes
Waqas
Ward
Warda
Warner
Warren
Warsame
Warsha
Wart
Waseem
Wasim
Wassila
Wassim
Wassima
Wayne
Wei
Welmoed
Wen
Wencke
Wenda
Wendel
Wendela
Wendelien
Wendelina
Wendeline
Wendell
Wendie
Wendy
wendy
Wenke
Wensley
Werner
Wes
Wesley
wesley
Wesly
Wessel
wessel
Wessel
Wester
Whitley
Whitney
Wiam
Wiard
Wibe
Wichard
Wicher
Wichert
Wick
Widad
Wiebe
Wiebren
Wiecher
Wieger
Wiek
Wieke
Wieneke
Wiep
Wiepke
Wiepkje
Wierd
Wiert
Wies
Wiesje
Wieske
Wieteke
Wietse
Wietske
Wietze
Wiggert
Wijbe
Wijmpje
Wijnand
Wijnanda
Wijntje
Wijtske
Wijtze
Wikash
Wilbert
Wilco
Wilfred
Wilfried
wilhelm
Wilhelm
Wilhelmina
wilhelmina
Wilhelmine
wilhelmus
Wilhelmus
Wiljan
Wilke
Wilko
Willard
Willebrordus
Willeke
Willem
willem
Willem
Willemieke
Willemien
Willemijn
Willemijntje
Willemina
willemina
Willemine
Willem-Jan
Willemke
Willempje
willempje
Willemtje
William
Willian
Willianne
Willibrordus
Willie
Willy
willy
Wilma
wilma
Wilmar
Wilmer
Wilson
Wim
wim
Wimke
Winand
Winanda
Winesh
Winfried
Wing
Winnie
Winny
Winona
Winston
Wiresh
Wisal
Wishal
Wissal
Wissam
Wisse
Wladimir
Wobbe
Wolf
Wolfgang
Wolter
Wopke
Wouke
Wout
Wouter
wouter
Woutera
Wouterina
Wouter-Jan
Wouterus
Wubbo
Wulfert
Wybe
Wybren
Wyke
Wynand
Wytse
Wytske
Wytze
Xam
Xamira
Xander
Xandra
Xandro
Xanne
Xanthe
Xavi
xavi
Xavi
Xavier
Xaviera
Xena
Xenia
Xian
Xiao
Ximena
Xin
Xiomara
Xu
Xuan
Xue
Xynthia
Ya
Yacintha
Yade
Yael
Yaela
Yaelle
Yagmur
Yahia
Yahya
Yahye
Yair
Yakup
Yalcin
Yalda
Yamila
Yamilla
Yamina
Yamna
Yan
Yana
Yanaika
Yang
Yanick
Yaniek
Yann
Yanna
Yannic
Yannick
Yanniek
Yannik
Yannis
Yanou
Yaprak
Yara
yara
Yara
Yarah
Yaren
Yari
Yarnick
Yarno
Yaro
Yaron
Yasar
Yasemin
Yaser
Yash
Yasin
Yasir
Yasmien
Yasmijn
yasmin
Yasmin
Yasmina
yasmina
Yasmine
yasmine
Yasmine
Yasser
Yassin
Yassine
yassine
Yassir
Yassira
Yassmina
Yassmine
Yavuz
Yaw
Yazid
Yde
Yee
Yelda
Yelena
Yelina
Yeliz
Yen
Yenna
Yente
Yentel
Yenthe
Yentl
Yentle
Yesim
Yesse
Yessica
Yessin
Yeter
Yfke
yfke
Yi
Yigit
Yildiz
Yilmaz
Yin
Ying
Yinthe
Yip
Yiu
Yke
Ylana
Ylja
Ylona
Ylonka
Ylse
Ylva
Yme
Ymke
Ymkje
Ynske
Ynskje
Ynte
Ynze
Yoel
Yoell
Yoella
Yoelle
Yoep
Yoeri
Yolanda
yolanda
Yolande
Yonah
Yonathan
Yonca
Yong
Yoni
Yonis
Yonna
Yonne
Yoram
Yoran
Yorben
Yordi
Yordy
Yori
Yorian
Yorick
Yorik
Yorin
Yorinde
Yorn
Yorrick
Yosef
Yoshi
Yoshka
Yoshua
Yosra
Yosri
Youandi
Younes
younes
Younes
Youness
Youp
youri
Youri
Yousef
Yousif
Yousra
Yousri
youssef
Youssef
youssra
Youssra
Youssri
Ype
Yrsa
Ysbrand
Ytje
Ytsje
Yu
Yucel
Yuen
Yuka
Yuki
Yuksel
Yun
Yuna
Yunus
Yuri
Yurrian
Yusra
yusuf
Yusuf
Yvan
Yvana
Yvanca
Yvanka
Yvar
Yves
Yvet
Yvette
yvette
Yvo
Yvon
Yvonne
yvonne
Zacharias
Zachary
Zafer
Zahia
Zahid
Zahide
Zahir
Zahira
Zahra
Zahraa
Zaid
Zain
Zaina
Zainab
Zaineb
zakaria
Zakaria
Zakariae
Zakariya
Zaki
Zakia
Zakiya
Zamira
Zana
Zander
Zara
Zarah
Zarife
Zarina
Zayd
Zaynab
Zaza
Zeb
Zef
Zefanja
Zeger
Zehra
Zeinab
Zeineb
Zekeriya
Zeki
Zekiye
Zelal
Zelda
Zeliha
Zen
Zena
Zenab
Zenna
Zeno
Zenzi
Zep
Zerda
Zerina
Zerrin
Zev
Zeynab
Zeyneb
Zeynel
Zeynep
zeynep
Zhane
Zhen
Zhi
Zi
Ziad
Zico
Ziggy
Zilan
Zilla
Zillah
Zina
Zinab
Zineb
Zinedine
Zine-Eddine
Zino
Zinzi
Zion
Zippora
Zita
Ziya
zoe
Zoe
zoë
Zoë
Zoey
Zohair
Zohal
Zohra
Zoi
Zola
Zonne
Zora
Zoran
Zosja
Zoubeir
Zoubida
Zouhair
Zoulikha
Zowie
Zoya
Zubeyde
Zuhal
Zulal
Zuleyha
Zumra
Zuzanna
Zwaantje
Zwier
Fletchina
Torec
As
Hent
Desy
Kamla
Geerteke
Triage
Co
Renee
Assistente
Stagiare
Fem
Waarneem
Marya
Nyneke
Bernadien
Sadiah
Widjia
Huisarts
Kabul
Ferlin
Zoza
Taranga
Frederqiue
Haio
Ben
Virgilla
Huisarts
Renee
Kabul
Ferlin
Zoza
Taranga
Frederqiue
Co
Suada
Elvy
B.J.
Uitleen
ELVY
Mispa
Mispa
ELVY
As
Geerteke
Hent
Kamla
Triage
Morane
Stagiare
Na∩lya
Mays
Motti
Roel
Firr
Ben
Marya
Stagiare
Bernadien
Stagiare
Virgilla
Sadiah
Huisarts
Widjia
Virgilla
Sadiah
ReneΘ
Vladan
Mala
Vladan
Mala
Dete
Dete
Erna
Catrien
Erna
Huisarts
Suada
Uitleen
Co-asa
Elvy
B.J.
Reandra
Caitlinn
Ferlin
Frederqiue
Kabul
Renee
Taranga
Zoza
Morane
Retti
Kamla
Ad
Triage
Co
As
Geerteke
Oye
Mays
Na∩lya
Roel
Firr
Ben
Morane
As
Hent
Kamla
Geerteke
Ad
Triage
Co
Na∩lya
Motti
Roel
Firr
Ben
Mays
Zoza
Taranga
Frederqiue
Stagiare
Renee
Kabul
Ferlin
Retti
Kamla
Geerteke
Ad
Triage
Co
Morane
As
Bernadien
Sadiah
Vladan
Mala
Vladan
Mala
Morane
As
Huisarts
Widjia
Virgilla
Retti
Sadiah
ReneΘ
Virgilla
Kamla
Geerteke
Dete
Dete
Erna
Catrien
Erna
Jonat
Jonat
ELVY
Co-asa
Mispa
Mispa
Co-asa
ELVY
Erna
Catrien
Erna
Stagiare
Bernadien
Sadiah
Widjia
Virgilla
Nieda
Riek
Etoes
Ad
Triage
Co
Elvy
Suada
B.J.
Uitleen
ELVY
Mispa
Huisarts
Bernadien
Sadiah
Widjia
Virgilla
Renee
Kabul
Ferlin
Zoza
Taranga
Frederqiue
Virgilla
Sadiah
ReneΘ
Mispa
ELVY
Elvy
Suada
B.J.
Uitleen
Morane
Vladan
Mala
Vladan
Mala
Dete
Dete
Erna
Catrien
Erna
Retti
Kamla
Ad
Triage
Co
As
Geerteke
Oye
Elvy
Suada
Mays
Na∩lya
Roel
Firr
Ben
Marya
B.J.
Uitleen
Morane
Retti
Kamla
Ad
Geerteke
Vladan
Mala
Vladan
Mala
Dete
Dete
Elvy
Suada
B.J.
Uitleen
Nel
Virgilla
Nieda
Geanet
Nyneke
Renske
Wietske
Rick
Ben
Renske
Ed
Oye
Mays
Na∩lya
Sadiah
ReneΘ
Triage
Co
Roel
Firr
Ben
As
Ferlin
Kabul
Renee
Taranga
Zoza
Huisarts
Ad
As
Co
Geerteke
Kamla
Morane
Retti
Triage
Oye
Mays
Na∩lya
Roel
Firr
Ben
Virgilla
Sadiah
ReneΘ
Dete
Dete
Vladan
Mala
Vladan
Mala
Erna
Catrien
Erna

