﻿1e Exloërmond
2e Exloërmond
2e Valthermond
Aadorp
Aagtekerke
Aalden
Aalsmeer
Aalsmeerderbrug
Aalst
Aalsum
Aalten
Aardenburg
Aarlanderveen
Aarle-Rixtel
Aartswoud
Abbega
Abbekerk
Abbenbroek
Abbenes
Abcoude
Achlum
Achterveld
Achthuizen
Achtmaal
Acquoy
Adorp
Aduard
Aerdenhout
Aerdt
Afferden
Afferden L
afghanistan
Afghanistan
Agelo
Akersloot
Akkrum
Akmarijp
akrotiri
Akrotiri
Albanie
albanie
albanië
Albanië
Albergen
Alblasserdam
Alde Leie
Aldeboarn
Aldtsjerk
Alem
algerije
Algerije
Alkmaar
Allingawier
Almelo
Almen
Almere
Almkerk
Alphen
Alphen aan den Rijn
Alteveer
Alteveer gem Hoogeveen
Altforst
Ambt Delden
Ameide
Amen
America
Amerika
amerika
Amerongen
Amersfoort
Ammerstol
Ammerzoden
Amstelhoek
Amstelveen
Amstenrade
Amsterdam
Amsterdam-Duivendrecht
A'Dam
Amsteldijk
Ardennen
Bijlmer
Brussel
Caracao
Curacau
Gasthuiskwartier
Kanaaleiland
Leiden
Oosterpark
Leidsche Rijn
Andel
Andelst
Anderen
Andijk
Andorra
andorra
Ane
Anerveen
Anevelde
Angeren
Angerlo
Angola
angola
anguilla
Anguilla
Anjum
Ankeveen
Anloo
Anna Paulowna
Annen
Annerveenschekanaal
Ansen
antarctica
Antarctica
antigua
Antigua 
ANtillen
Apeldoorn
Appelscha
Appeltern
Appingedam
arabische emiraten
Arabische Emiraten
Arcen
Arctic Ocean
arctic ocean
argentinie
Argentinie
argentinië
Argentinië
Arkel
armenie
Armenie
Armenië
armenië
Arnemuiden
Arnhem
Arriën
aruba
Aruba
Arum
Asch
Ashmore
ashmore and cartier islands
Asperen
Assen
Assendelft
Asten
atlantic ocean
Atlantic Ocean
Augsbuurt
Augustinusga
Austerlitz
Australie
australie
Australië
australië
Avenhorn
Axel
Azerbeidzjan
azerbeidzjan
Azewijn
Baaiduinen
Baaium
Baak
Baambrugge
Baard
Baarland
Baarle-Nassau
Baarlo
Baarn
Baars
Babberich
Babyloniënbroek
Bad Nieuweschans
Badhoevedorp
Baexem
Baflo
Bahamas
bahamas
bahama's
Bahama's
Bahrein
bahrein
Bakel
Bakhuizen
Bakkeveen
Balgoij
Balinge
Balk
Balkbrug
Balloërveld
Balloo
Ballum
Baneheide
bangladesh
Bangladesh
Banholt
Bant
Bantega
barbados
Barbados
barbuda
Barbuda
Barchem
Barendrecht
Barger-Compascuum
Barneveld
Barsingerhorn
Basse
Batenburg
Bathmen
Bavel
Bavel AC
Bears
Bedum
Beegden
Beek
Beek en Donk
Beekbergen
Beemte Broekland
Beers NB
Beerta
Beerze
Beerzerveld
Beesd
Beesel
Beets
Beetsterzwaag
Beilen
Beinsdorp
belarus
Belarus
Belfeld
belgie
Belgie
België
belgië
belize
Belize
Bellingwolde
Beltrum
Belt-Schutsloot
Bemelen
Bemmel
Beneden-Leeuwen
Benin
benin
Bennebroek
Bennekom
Benneveld
Benningbroek
Benschop
Bentelo
Benthuizen
Bentveld
Berg en Dal
Berg en Terblijt
Bergambacht
Bergeijk
Bergen (NH)
Bergen aan Zee
Bergen L
Bergen op Zoom
Bergentheim
Bergharen
Berghem
Bergschenhoek
Beringe
Berkel en Rodenrijs
Berkel-Enschot
Berkenwoude
Berkhout
Berlicum
Berltsum
Bermuda
bermuda
Bern
Best
Beugen
Beuningen
Beuningen Gld
Beusichem
Beutenaken
Beverwijk
bhutan
Bhutan
Biddinghuizen
Bierum
Biervliet
Biest-Houtakker
Biezenmortel
Biggekerke
Bilthoven
Bingelrade
Bitgum
Bitgummole
Bladel
Blankenham
Blaricum
Blauwestad
Blauwhuis
Bleiswijk
Blesdijke
Bleskensgraaf ca
Blessum
Blije
Blijham
Blitterswijck
Bloemendaal
Blokker
Blokzijl
Boazum
Bocholtz
Bodegraven
Boekel
Boelenslaan
Boer
Boerakker
Boesingheliede
Boijl
Boksum
Bolivie
bolivie
bolivië
Bolivië
Bolsward
Bontebok
Boornbergum
Boornzwaag
Borculo
Borger
Borgercompagnie
Borgsweer
Born
Borne
Bornerbroek
Bornwird
Borssele
Bosch en Duin
Boschoord
Boskoop
bosnie
bosnië
Bosnie-Herzegovina
Bosnië-Herzegovina
Bosschenhoofd
Botlek Rotterdam
Botswana
botswana
Bourtange
bouvet island
Bouvet Island
Bovenkarspel
Boven-Leeuwen
Bovensmilde
Boxmeer
Boxtel
Braamt
Brakel
Brandwijk
Brantgum
brazilie
Brazilie
brazilië
Brazilië
Breda
Bredevoort
Breedenbroek
Breezand
Breezanddijk
Breskens
Breukelen
Breukeleveen
Brielle
Briltil
british indian ocean territory
British Indian Ocean Territory
Britse Maagdeneilanden
Britsum
Britswert
Broek
Broek in Waterland
Broek op Langedijk
Broekhuizen
Broekhuizenvorst
Broekland
Broeksterwâld
Bronkhorst
Bronneger
Bronnegerveen
Brouwershaven
Bruchem
Brucht
Bruchterveld
Bruinehaar
Bruinisse
Brummen
Brunei
brunei
Brunssum
Bruntinge
Buchten
Budel
Budel-Dorplein
Budel-Schoot
Buggenum
Buinen
Buinerveen
Buitenkaag
Buitenpost
bulgarije
Bulgarije
Bunde
Bunne
Bunnik
Bunschoten-Spakenburg
Burdaard
Buren
Burgerbrug
Burgerveen
Burgh-Haamstede
Burgum
Burgwerd
Burkina Faso
burkina faso
Burum
burundi
Burundi
Bussum
Buurmalsen
Cadier en Keer
Cadzand
caicoseilanden
Caledonië
Callantsoog
Cambodja
cambodja
canada
Canada
Capelle aan den IJssel
Cartier Islands
Castelre
Castenray
Casteren
Castricum
Caymaneilanden
caymaneilanden
Centraal-Afrikaanse Republiek
centraal-afrikaanse republiek
Chaam
chili
Chili
china
China
christmas island
Christmas Island
Clinge
Clipperton Island
clipperton island
Cocos eiland
cocos islands
Cocos Islands
Coevorden
Colijnsplaat
Collendoorn
Colmschate
Colombia
colombia
Comoren
comoren
congo
Congo
cook
Cook
coral sea islands
Coral Sea Islands
Cornwerd
costa rica
Costa Rica
Cothen
Creil
Cromvoirt
Cruquius
cuba
Cuba
Cuijk
Culemborg
cyprus
Cyprus
Daarle
Daarlerveen
Dalem
Dalen
Dalerpeel
Dalerveen
Dalfsen
Dalmsholte
Damwâld
Darp
De Bilt
De Blesse
De Bult
De Cocksdorp
De Falom
De Glind
De Goorn
De Groeve
De Heen
De Heurne
de Hoef
De Hoeve
De Kiel
De Klomp
De Knipe
De Koog
De Krim
De Kwakel
De Lier
de Lutte
De Meern
De Moer
De Mortel
De Pol
De Punt
De Rijp
De Rips
De Schiphorst
De Steeg
De Tike
De Veenhoop
De Waal
De Weere
De Westereen
de Wijk
De Wilgen
De Wilp
de Woude
De Zilk
Dearsum
Dedemsvaart
Dedgum
Deelen
Deest
Deil
Deinum
Delden
Delfgauw
Delfstrahuizen
Delft
Delfzijl
Delwijnen
Demen
Den Andel
Den Bommel
Den Bosch
Den Burg
Den Dolder
Den Dungen
Den Haag
Den Ham
Den Helder
Den Hoorn
Den Horn
Den Hout
Den Ilp
Den Oever
Den Velde
Denekamp
Denemarken
denemarken
Deurne
Deurningen
Deursen-Dennenburg
Deurze
Deventer
dhekelia
Dhekelia
Didam
Dieden
Diemen
Diepenheim
Diepenveen
Dieren
Diessen
Diever
Dieverbrug
Diffelen
Dijken
Dinteloord
Dinxperlo
Diphoorn
Dirkshorn
Dirksland
Djibouti
djibouti
Dodewaard
Doenrade
Doesburg
Doetinchem
Doeveren
Doezum
Dokkum
Doldersum
Domburg
Dominica
dominica
Dominicaanse Republiek
dominicaanse republiek
Donderen
Dongen
Dongjum
Doniaga
Donkerbroek
Doorn
Doornenburg
Doornspijk
Doorwerth
Dordrecht
Dorst
Drachten
Drachten-Azeven
Drachtstercompagnie
Dreischor
Drempt
Dreumel
Driebergen-Rijsenburg
Drieborg
Driebruggen
Driehuis NH
Driehuizen
Driel
Driewegen
Driezum
Drijber
Drimmelen
Drogeham
Drogteropslagen
Drongelen
Dronryp
Dronten
Drouwen
Drouwenermond
Drouwenerveen
Drunen
Druten
Duitsland
duitsland
Duiven
Duivendrecht
Duizel
Dussen
Dwingeloo
Eagum
Earnewâld
Easterein
Easterlittens
Eastermar
Easterwierrum
Echt
Echteld
Echten
Echtenerbrug
Eck en Wiel
Eckelrade
ecuador
Ecuador
Edam
Ede
Ederveen
Ee
Eede
Eefde
Eelde
Eelderwolde
Eemdijk
Eemnes
Eemshaven
Een
Eenrum
Eenum
Een-West
Eerbeek
Eersel
Ees
Eesergroen
Eeserveen
Eesterga
Eesveen
Eethen
Eext
Eexterveen
Eexterveenschekanaal
Eexterzandvoort
Egchel
Egmond aan den Hoef
Egmond aan Zee
Egmond-Binnen
egypte
Egypte
Eibergen
Eijsden
Eindhoven
Einighausen
Ekehaar
el salvador
El Salvador
Elahuizen
Elburg
Eldersloo
Eleveld
Elim
Elkenrade
Ell
Ellecom
Ellemeet
Ellertshaar
Ellewoutsdijk
Elp
Elsendorp
Elshout
Elsloo
Elspeet
Elst
Elst Ut
emiraten
Emiraten
Emmeloord
Emmen
Emmer-Compascuum
Empe
Emst
Engeland
engeland
Engwierum
Enkhuizen
Ens
Enschede
Enspijk
Enter
Enumatil
Epe
Epen
Eppenhuizen
Epse
Equatoriaal-Guinea
equatoriaal-guinea
Erica
Erichem
Eritrea
eritrea
Erlecom
Erm
Ermelo
Erp
Esbeek
Esch
Escharen
Espel
Est
Estland
estland
ethiopie
Ethiopie
Ethiopië
ethiopië
Etten
Etten-Leur
European Union
european union
Europoort Rotterdam
Eursinge
Everdingen
Evertsoord
Ewijk
Exloërveen
Exloo
Exmorra
Eygelshoven
Eys
Ezinge
falkland
Falkland
Farmsum
faroe islands
Faroe Islands
Feanwâlden
Feerwerd
Feinsum
Ferwert
Ferwoude
Fiji
fiji
Fijnaart
Filipijnen
filipijnen
finland
Finland
Finsterwolde
Firdgum
Fleringen
Fluitenberg
Fochteloo
Follega
Folsgare
Formerum
Foudgum
Foxhol
Foxwolde
Franeker
Frankrijk
frankrijk
frans-polynesie
Frans-Polynesie
Frans-Polynesië
frans-polynesië
Frederiksoord
French Southern and Antarctic Lands
french southern and antarctic lands
Friens
Frieschepalen
Froombosch
Futuna
Gaanderen
Gaast
Gaastmeer
gabon
Gabon
Galder
Gambia
gambia
Gameren
Gapinge
Garderen
Garmerwolde
Garminge
Garnwerd
Garrelsweer
Garsthuizen
Garyp
Gassel
Gasselte
Gasselternijveen
Gasselternijveenschemond
Gastel
Gasteren
Gauw
Gaza
Gaza Strip
gaza strip
Geelbroek
Geerdijk
Geersdijk
Geertruidenberg
Geervliet
Gees
Geesbrug
Geesteren
Geeuwenbrug
Geffen
Geijsteren
Geldermalsen
Gelderswoude
Geldrop
Geleen
Gellicum
Gelselaar
Gemert
Gemonde
Genderen
Gendringen
Gendt
Genemuiden
Gennep
georgie
Georgie
georgië
Georgië
Gerkesklooster
Gersloot
Geulle
ghana
Ghana
Gibraltar
gibraltar
Giesbeek
Giessen
Giessenburg
Gieten
Gieterveen
Giethmen
Giethoorn
Gilze
Ginnum
Glane
Glimmen
Godlinze
Goedereede
Goënga
Goëngahuizen
Goes
Goingarijp
Goirle
Goor
Gorinchem
Gorredijk
Gorssel
Gouda
Gouderak
Goudriaan
Goudswaard
Goutum
Graauw
Grafhorst
Graft
Gramsbergen
Grashoek
Grathem
Grave
grenada
Grenada
Grenadines
Greonterp
Grevenbicht
griekenland
Griekenland
Griendtsveen
Grijpskerk
Grijpskerke
Groede
Groenekan
Groeningen
groenland
Groenland
Groenlo
Groesbeek
Groessen
Groet
Grolloo
Groningen
Gronsveld
groot britanie
Groot Britanie
Groot Britanië
groot britanië
Groot-Ammers
Grootebroek
Grootegast
Grootschermer
Grou
Grubbenvorst
Guam
guam
Guatemala
guatemala
guernsey
Guernsey
Guinea
guinea
Guinee-Bissau
guinee-bissau
Gulpen
Guttecoven
guyana
Guyana
Gytsjerk
Haaften
Haaksbergen
Haalderen
Haaren
Haarle
Haarlem
Haarlemmerliede
Haarlo
Haarsteeg
Haarzuilens
Haastrecht
Haelen
Hagestein
Haghorst
Haiti
Haïti
haïti
Haler
Halfweg
Hall
Halle
Hallum
Halsteren
Handel
Hank
Hansweert
Hantum
Hantumeruitburen
Hantumhuizen
Hapert
Haps
Harbrinkhoek
Hardenberg
Harderwijk
Hardinxveld-Giessendam
Haren
Haren Gn
Harfsen
Harich
Haringhuizen
Harkema
Harkstede
Harlingen
Harmelen
Harreveld
Harskamp
Hartwerd
Haskerdijken
Haskerhorne
Hasselt
Hattem
Hattemerbroek
Haule
Haulerwijk
Hauwert
Havelte
Havelterberg
Hazerswoude-Dorp
Hazerswoude-Rijndijk
Heard Island and McDonald Islands
heard island and mcdonald islands
Hedel
Hedikhuizen
Hee
Heeg
Heel
Heelsum
Heelweg
Heemserveen
Heemskerk
Heemstede
Heenvliet
Heerde
Heerenveen
Heerewaarden
Heerhugowaard
Heerjansdam
Heerle
Heerlen
Heesbeen
Heesch
Heesselt
Heeswijk-Dinther
Heeten
Heeze
Hegebeintum
Hegelsom
Hei- en Boeicop
Heibloem
Heide
Heijen
Heijenrath
Heijningen
Heikant
Heilig Landstichting
Heilige Stoel
heilige stoel
Heiligerlee
Heiloo
Heinenoord
Heinkenszand
Heino
Hekelingen
Hekendorp
Helden
Helenaveen
Hellendoorn
Hellevoetsluis
Hellouw
Hellum
Helmond
Helvoirt
Hem
Hemelum
Hemmen
Hempens
Hemrik
Hendrik-Ido-Ambacht
Hengelo
Hengelo (Gld)
Hengevelde
Hengstdijk
Hensbroek
Herbaijum
Herkenbosch
Herkingen
Hernen
Herpen
Herpt
Herten
Hertme
Herveld
Herwen
Herwijnen
herzegovina
Heteren
Heukelom
Heukelum
Heumen
Heusden
Heveadorp
Heythuysen
Hezingen
Hiaure
Hichtum
Hidaard
Hierden
Hieslum
Hijken
Hijum
Hilaard
Hillegom
Hilvarenbeek
Hilversum
Hindeloopen
Hinnaard
Hippolytushoef
Hitzum
Hobrede
Hoedekenskerke
Hoek
Hoek van Holland
Hoenderloo
Hoensbroek
Hoenzadriel
Hoevelaken
Hoeven
Hoge Hexel
Hollandsche Rading
Hollandscheveld
Hollum
Holsloot
Holten
Holthees
Holtheme
Holthone
Holtum
Holwerd
Holwierde
Hommerts
Homoet
honduras
Honduras
Hongarije
hongarije
Hongkong
hongkong
Honselersdijk
Hoofddorp
Hoofdplaat
Hoog Soeren
Hoogblokland
Hooge Mierde
Hooge Zwaluwe
Hoogeloon
Hoogenweg
Hoogerheide
Hoogersmilde
Hoogeveen
Hoogezand
Hooghalen
Hoogkarspel
Hoog-Keppel
Hoogland
Hooglanderveen
Hoogmade
Hoogvliet Rotterdam
Hoogwoud
Hoorn
Hoornaar
Hoornsterzwaag
Horn
Hornhuizen
Horssen
Horst
Houten
Houtigehage
Houwerzijl
Huijbergen
Huis ter Heide
Huisduinen
Huisseling
Huissen
Huizen
Huizinge
Hulsberg
Hulsel
Hulshorst
Hulst
Hulten
Hummelo
Húns
Hunsel
Hurdegaryp
Hurwenen
Idaerd
Idsegahuizum
Idskenhuizen
Idzega
Iens
ierland
Ierland
IJhorst
IJlst
IJmuiden
IJsland
ijsland
IJsselham
IJsselmuiden
IJsselstein
IJzendijke
IJzendoorn
Ilpendam
India
india
indian ocean
Indian Ocean
Indijk
indonesie
Indonesie
indonesië
Indonesië
Ingber
Ingelum
Ingen
irak
Irak
iran
Iran
isle of man
Isle of Man
Israel
israel
israël
Israël
It Heidenskip
Italie
italie
italië
Italië
Itens
Ittervoort
ivoorkust
Ivoorkust
Jaarsveld
Jabeek
jamaica
Jamaica
Jan Mayen
jan mayen
Jannum
japan
Japan
Jellum
Jelsum
Jemen
jemen
Jersey
jersey
Jirnsum
Jislum
Jisp
Jistrum
Jonkerslân
Jonkersvaart
Joppe
jordanie
Jordanie
jordanië
Jordanië
Jorwert
Joure
Jouswier
Jubbega
Julianadorp
Jutrijp
Kaag
Kaapverdie
kaapverdie
Kaapverdië
kaapverdië
Kaard
Kaatsheuvel
Kalenberg
Kallenkote
Kamerik
Kameroen
kameroen
Kampen
Kamperland
Kamperveen
Kantens
Kapel Avezaath
Kapel-Avezaath
Kapelle
Kapellebrug
Katlijk
Kats
Kattendijke
Katwijk
Katwijk NB
Katwoude
kazachstan
Kazachstan
Kedichem
Keent
Keijenborg
Kekerdom
Kelpen-Oler
kenia
Kenia
Kerk Avezaath
Kerk-Avezaath
Kerkdriel
Kerkenveld
Kerkrade
Kerkwerve
Kerkwijk
Kessel
Kesteren
Kiel-Windeweer
Kilder
Kimswerd
Kinderdijk
Kinnum
Kirgizstan
kirgizstan
kiribati
Kiribati
Klaaswaal
Klarenbeek
Klazienaveen
Klazienaveen-Noord
Klein Zundert
Klijndijk
Klimmen
Kloetinge
Klooster Lidlum
Kloosterburen
Kloosterhaar
Kloosterzande
Klundert
Knegsel
Koarnjum
Kockengen
Koedijk
Koekange
Koewacht
koeweit
Koeweit
Kolderwolde
Kolham
Kolhorn
Kollum
Kollumerpomp
Kollumerzwaag
Kommerzijl
Koningsbosch
Koningslust
Koog aan de Zaan
Koolwijk
Kootstertille
Kootwijk
Kootwijkerbroek
Kornhorn
Kornwerderzand
Kortehemmen
Kortenhoef
Kortgene
Koudekerk aan den Rijn
Koudekerke
Koudum
Koufurderrige
Krabbendijke
Kraggenburg
Kreileroord
Krewerd
Krimpen aan de Lek
Krimpen aan den IJssel
Kring van Dorth
Kroatie
kroatie
kroatië
Kroatië
Krommenie
Kronenberg
Kropswolde
Kruiningen
Kruisland
Kûbaard
Kudelstaart
Kuinre
Kuitaart
Kwadendamme
Kwadijk
Kwintsheul
Laag Zuthem
Laag-Keppel
Laag-Soeren
Lage Mierde
Lage Vuursche
Lage Zwaluwe
Lageland
Lambertschaag
Lamswaarde
Landerum
Landgraaf
Landhorst
Landsmeer
Langbroek
Langedijke
Langelille
Langelo
Langenboom
Langerak
Langeveen
Langeweg
Langezwaag
Langweer
laos
Laos
Laren
Lathum
Lattrop-Breklenkamp
Lauwersoog
Lauwerzijl
Ledeacker
Leek
Leende
Leens
Leerbroek
Leerdam
Leermens
Leersum
Leeuwarden
Legemeer
Leiden
Leiderdorp
Leidschendam
Leimuiden
Leimuiderbrug
Lekkerkerk
Lekkum
Lellens
Lelystad
Lemele
Lemelerveld
Lemiers
Lemmer
Lengel
Lent
Leons
Lepelstraat
lesotho
Lesotho
Leste
letland
Letland
Lettelbert
Lettele
Leunen
Leur
Leusden
Leuth
Leutingewolde
Leuvenheim
Leveroy
Lewedorp
Lexmond
libanon
Libanon
Liberia
liberia
libie
Libie
libië
Libië
Lichtaard
Lichtenvoorde
Liechtenstein
liechtenstein
Liempde
Lienden
Lierderholthuis
Lieren
Lierop
Lies
Lieshout
Liessel
Lievelde
Lieveren
Lijnden
Limbricht
Limmen
Linde
Linden
Linne
Linschoten
Lioessens
Lippenhuizen
Lisse
Lisserbroek
Lith
Lithoijen
Litouwen
litouwen
Lobith
Lochem
Loenen
Loenen aan de Vecht
Loenersloot
Loënga
Loerbeek
Lollum
Lomm
Longerhouw
Loo Gld
Loon
Loon op Zand
Loosbroek
Loosdrecht
Loozen
Lopik
Lopikerkapel
Loppersum
Losdorp
Losser
Lottum
Lucaswolde
Luddeweer
Luinjeberd
Lunteren
Lutjebroek
Lutjegast
Lutjewinkel
Luttelgeest
Lutten
Luttenberg
luxemburg
Luxemburg
Luxwoude
Luyksgestel
Lytsewierrum
maagdeneilanden
Maagdeneilanden
Maarheeze
Maarn
Maarsbergen
Maarssen
Maartensdijk
Maasbommel
Maasbracht
Maasbree
Maasdam
Maasdijk
Maashees
Maasland
Maassluis
Maastricht
Maastricht-Airport
Maasvlakte Rotterdam
Macao
macao
macedonie
Macedonie
macedonië
Macedonië
Macharen
Madagaskar
madagaskar
Made
Makkinga
Makkum
Malawi
malawi
Malden
Maldiven
maldiven
Maleisie
maleisie
maleisië
Maleisië
Mali
mali
malta
Malta
Mander
Manderveen
Mantgum
Mantinge
Maren-Kessel
Margraten
Maria Hoop
Mariahout
Marianen
Mariaparochie
Mariënberg
Mariënheem
Mariënvelde
Marijenkampen
Markelo
Marken
Markenbinnen
Marknesse
Marle
Marokko
marokko
Marrum
Marshall Islands
marshall islands
Marsum
Marum
Marwijksoord
Mastenbroek
Matsloot
Maurik
mauritanie
Mauritanie
Mauritanië
mauritanië
Mauritius
mauritius
Mayotte
mayotte
Mechelen
Medemblik
Meeden
Meedhuizen
Meerkerk
Meerlo
Meerssen
Meerstad
Meeuwen
Megchelen
Megen
Meijel
Melderslo
Melick
Meliskerke
Melissant
Menaam
Mensingeweer
Meppel
Meppen
Merkelbeek
Merselo
Meteren
Meterik
Metslawier
Mexico
mexico
Mheer
micronesia
Micronesia
Middelaar
Middelburg
Middelharnis
Middelie
Middelstum
Middenbeemster
Middenmeer
Midlaren
Midlum
Midsland
Midwolda
Midwolde
Midwoud
Miedum
Mierlo
Mijdrecht
Mijnsheerenland
Mildam
Milheeze
Mill
Millingen aan de Rijn
Milsbeek
Minnertsga
Miquelon
Mirns
Moddergat
Moerdijk
Moergestel
Moerkapelle
Moerstraten
Moldavie
moldavie
Moldavië
moldavië
Molenaarsgraaf
Molenhoek
Molenschot
Molkwerum
monaco
Monaco
Mongolie
mongolie
mongolië
Mongolië
Monnickendam
Monster
montenegro
Montenegro
Montfoort
Montfort
Montserrat
montserrat
Mook
Mookhoek
Moordrecht
Moorveld
Morra
mozambique
Mozambique
Muiden
Muiderberg
Mûnein
Munnekeburen
Munnekezijl
Munstergeleen
Muntendam
Mussel
Musselkanaal
myanmar
Myanmar
Naaldwijk
Naarden
Nagele
Namibie
namibie
namibië
Namibië
nauru
Nauru
navassa island
Navassa Island
Nederasselt
Nederhemert
Nederhorst den Berg
Nederland
nederland
Nederland
nederlandse antillen
Nederlandse Antillen
Nederweert
Nederweert-Eind
Neede
Neer
Neerijnen
Neeritter
Neerkant
Neerlangel
Neerloon
nepal
Nepal
Nes
Netersel
Netterden
Nevis
ngwane
Ngwane
Niawier
Nibbixwoud
nicaragua
Nicaragua
Niebert
Niehove
Niekerk
Nietap
Nieuw Annerveen
Nieuw Beerta
Nieuw- en Sint Joosland
Nieuw Guinea
Nieuw Heeten
Nieuw Namen
Nieuw Scheemda
Nieuwaal
Nieuw-Amsterdam
Nieuw-Balinge
Nieuw-Beijerland
Nieuw-Buinen
Nieuw-Caledonie
nieuw-caledonie
nieuw-caledonië
Nieuw-Dordrecht
Nieuwdorp
Nieuwe Niedorp
Nieuwe Pekela
Nieuwe Wetering
Nieuwebrug
Nieuwediep
Nieuwegein
Nieuwehorne
Nieuwendijk
Nieuwer Ter Aa
Nieuwerbrug aan den Rijn
Nieuwerkerk
Nieuwerkerk aan den IJssel
Nieuweroord
Nieuwersluis
Nieuweschoot
Nieuwe-Tonge
Nieuwguinea
NieuwGuinea
Nieuw-Guinea
nieuw-guinea
Nieuwkoop
Nieuwkuijk
Nieuwland
Nieuwlande
Nieuwlande Coevorden
Nieuw-Lekkerland
Nieuwleusen
Nieuwolda
Nieuwpoort
Nieuw-Roden
Nieuw-Schoonebeek
Nieuwstadt
Nieuwveen
Nieuw-Vennep
Nieuwvliet
Nieuw-Vossemeer
Nieuw-Weerdinge
Nieuwzeeland
NieuwZeeland
nieuw-zeeland
Nieuw-Zeeland
Niezijl
Niftrik
niger
Niger
nigeria
Nigeria
Nigtevecht
Nij Altoenae
Nij Beets
Nijbroek
Nijeberkoop
Nijega
Nijehaske
Nijeholtpade
Nijeholtwolde
Nijelamer
Nijemirdum
Nijensleek
Nijetrijne
Nijeveen
Nijhuizum
Nijkerk
Nijkerkerveen
Nijland
Nijlande
Nijmegen
Nijverdal
Nispen
Nisse
Nistelrode
niue
Niue
Noardburgum
Nooitgedacht
Noorbeek
Noord Korea
Noordbeemster
Noordbroek
Noordeinde
Noordeinde Gld
noordelijke marianen
Noordeloos
Noorden
Noordgouwe
Noordhoek
Noordhorn
NoordKorea
Noordkorea
noord-korea
Noord-Korea
Noordlaren
Noord-Scharwoude
Noordscheschut
Noord-Sleen
Noordwelle
Noordwijk
Noordwijkerhout
Noordwolde
noorwegen
Noorwegen
Nootdorp
norfolk island
Norfolk Island
Norg
Notter
Nuenen
Nuis
Nuland
Numansdorp
Nunhem
Nunspeet
Nuth
Nutter
Obbicht
Obdam
Ochten
Odijk
Odiliapeel
Odoorn
Odoornerveen
Oeffelt
Oegstgeest
Oekraine
Oekraïne
oekraïne
Oene
Oentsjerk
oezbekistan
Oezbekistan
Offingawier
Ohé en Laak
Oijen
Oirlo
Oirsbeek
Oirschot
Oisterwijk
Okkenbroek
Olburgen
Oldeberkoop
Oldebroek
Oldeholtpade
Oldeholtwolde
Oldehove
Oldekerk
Oldelamer
Oldemarkt
Oldenzaal
Oldenzijl
Oldeouwer
Oldetrijne
Olst
Olterterp
Oman
oman
Ommel
Ommen
Ommeren
Onderdendam
Onna
Onnen
Onstwedde
Ooij
Ooltgensplaat
Oost West en Middelbeers
Oostburg
Oostdijk
Oosteind
Oostenrijk
oostenrijk
Oosterbeek
Oosterbierum
Oosterblokker
Oosterend
Oosterhesselen
Oosterhout
Oosterland
Oosterleek
Oosternieland
Oosternijkerk
Oosterstreek
Oosterwijk
Oosterwijtwerd
Oosterwolde
Oosterwolde Gld
Oosterzee
Oost-Graftdijk
Oosthem
Oosthuizen
Oostkapelle
Oostknollendam
Oostrum
Oost-Souburg
Oostvoorne
Oostwold
Oostwoud
Oostzaan
Ootmarsum
Opeinde
Opende
Ophemert
Opheusden
Opijnen
Oploo
Opmeer
Oppenhuizen
Opperdoes
Oranje
Oranjewoud
Orvelte
Osdorp
Ospel
Oss
Ossendrecht
Ossenisse
Ossenwaard
Ossenzijl
Oterleek
Otterlo
Ottersum
Ottoland
Oud Ade
Oud Annerveen
Oud Gastel
Oud Ootmarsum
Oud Zuilen
Oud-Alblas
Oud-Beijerland
Ouddorp
Oude Meer
Oude Niedorp
Oude Pekela
Oude Wetering
Oude Willem
Oudebildtzijl
Oudega
Oudehaske
Oudehorne
Oudelande
Oudemirdum
Oudemolen
Oudenbosch
Oudendijk
Oudenhoorn
Ouderkerk aan de Amstel
Ouderkerk aan den IJssel
Oudeschans
Oudeschild
Oudeschip
Oudeschoot
Oudesluis
Oude-Tonge
Oudewater
Oudezijl
Oudheusden
Oudkarspel
Oudorp
Oud-Vossemeer
Oudwoude
Ouwerkerk
Ouwsterhaule
Ouwster-Nijega
Overasselt
Overberg
Overdinkel
Overlangel
Overloon
Overschild
Overslag
Overveen
Ovezande
Paasloo
Pacific Ocean
pacific ocean
Paesens
pakistan
Pakistan
Palau
palau
panama
Panama
Pannerden
Panningen
Papekop
Papendrecht
Papenhoven
Papenvoort
papoea
Papoea
Papoea-Nieuw-Guinea
Paracel
paracel islands
Paracel Islands
Paraguay
paraguay
Parrega
Paterswolde
Peest
Peins
Peize
Peperga
Pernis Rotterdam
Persingen
Peru
peru
Pesse
Petten
Philippine
Piaam
Piershil
Pieterburen
Pietersbierum
Pieterzijl
Pijnacker
Pingjum
Pitcairn
pitcairn
Plasmolen
Poederoijen
Poeldijk
polen
Polen
Polsbroek
Poortugaal
Poortvliet
Poppenwier
Portugal
portugal
Posterholt
Principe
Prinsenbeek
Puerto Rico
puerto rico
Puiflijk
Punthorst
Purmer
Purmerend
Purmerland
Puth
Putte
Putten
Puttershoek
qatar
Qatar
Raalte
Raamsdonk
Raamsdonksveer
Raard
Radewijk
Radio Kootwijk
Raerd
Randwijk
Ransdaal
Rasquert
Ravenstein
Ravenswaaij
Ravenswoud
Readtsjerk
Reahûs
Reduzum
Reek
Reeuwijk
Reijmerstok
Reitsum
Rekken
Renesse
Renkum
Renswoude
Ressen
Retranchement
Reusel
Reutum
Reuver
Rha
Rheden
Rhee
Rheeze
Rheezerveen
Rhenen
Rhenoy
Rhoon
Ridderkerk
Ried
Riel
Rien
Riethoven
Rietmolen
Rijen
Rijkevoort
Rijkevoort-De Walsert
Rijnsaterwoude
Rijnsburg
Rijpwetering
Rijs
Rijsbergen
Rijsenhout
Rijssen
Rijswijk
Rijswijk (GLD)
Rijswijk (NB)
Rilland
Rinsumageast
Ritthem
Rockanje
Roden
Roderesch
Roderwolde
Roelofarendsveen
Roemenie
roemenie
Roemenië
roemenië
Roermond
Rogat
Roggel
Rohel
Rolde
Roodeschool
Roosendaal
Roosteren
Rosmalen
Rossum
Roswinkel
Rotstergaast
Rotsterhaule
Rotterdam
Rotterdam-Albrandswaard
Rottevalle
Rottum
Rouveen
Rozenburg
Rozendaal
Rucphen
Ruigahuizen
Ruinen
Ruinerwold
Rumpt
Rusland
rusland
Rutten
Ruurlo
Rwanda
rwanda
Ryptsjerk
's Gravenmoer
Saaksum
Saasveld
Saaxumhuizen
Saint Helena
saint helena
Saint Lucia
saint lucia
Saint Vincent
saint vincent en de grenadines
Saint-Pierre
saint-pierre en miquelon
salomon
Salomon
Sambeek
Samoa
samoa
San Marino
san marino
Sandfirden
Santpoort-Noord
Santpoort-Zuid
Sao Tome
São Tomé
sao tome en principe
são tomé en principe
Sappemeer
Sas van Gent
Sassenheim
Saudi Arabie
SaudiArabie
Saudiarabie
Saudi-Arabie
saudi-arabie
Saudi-Arabië
saudi-arabië
Sauwerd
Schagen
Schagerbrug
Schaijk
Schalkhaar
Schalkwijk
Schalsum
Schardam
Scharendijke
Scharmer
Scharnegoutum
Scharsterbrug
Scharwoude
Scheemda
Scheerwolde
Schellinkhout
Schelluinen
Schermerhorn
Scherpenisse
Scherpenzeel
Schettens
Scheulder
Scheveningen
Schiedam
Schiermonnikoog
Schijf
Schijndel
Schildwolde
Schimmert
Schin op Geul
Schinnen
Schinveld
Schipborg
Schiphol
Schiphol-Rijk
Schipluiden
Schokland
Schoondijke
Schoonebeek
Schoonhoven
Schoonloo
Schoonoord
Schoonrewoerd
Schoorl
Schore
Schouwerzijl
Schraard
Schuinesloot
Sebaldeburen
Sellingen
Senegal
senegal
Serooskerke
servie
Servie
Servië
servië
Sevenum
Sexbierum
seychellen
Seychellen
's-Graveland
's-Gravendeel
's-Gravenhage
's-Gravenpolder
's-Gravenzande
's-Heer Abtskerke
's-Heer Arendskerke
's-Heer Hendrikskinderen
's-Heerenberg
's-Heerenbroek
's-Heerenhoek
's-Hertogenbosch
Sibculo
Sibrandabuorren
Sibrandahûs
Siddeburen
Siebengewald
Siegerswoude
sierra leone
Sierra Leone
Sijbekarspel
Silvolde
Simonshaven
Simpelveld
Sinderen
singapore
Singapore
Sint Agatha
Sint Annen
Sint Anthonis
Sint Geertruid
Sint Hubert
Sint Jansklooster
Sint Jansteen
Sint Joost
Sint Kruis
Sint Maarten
Sint Maartensbrug
Sint Maartensvlotbrug
Sint Nicolaasga
Sint Odiliënberg
Sint Pancras
Sint Philipsland
Sint-Annaland
Sintjohannesga
Sint-Kitts
sint-kitts en nevis
Sint-Maartensdijk
Sint-Michielsgestel
Sint-Oedenrode
Sirjansland
Sittard
Skingen
Slagharen
Slappeterp
Sleen
Sleeuwijk
Slenaken
Sliedrecht
Slijkenburg
Slijk-Ewijk
Slochteren
Slootdorp
Sloten
slovenie
Slovenie
Slovenië
slovenië
slowakije
Slowakije
Sluis
Sluiskil
Smakt
Smalle Ee
Smallebrugge
Smilde
Snakkerburen
Sneek
Snelrewaard
Snikzwaag
Soedan
soedan
Soerendonk
Soest
Soesterberg
somalie
Somalie
somalië
Somalië
Someren
Sommelsdijk
Son en Breugel
Sondel
Sonnega
South Georgia
south georgia
South Sandwich Islands
south sandwich islands
southern ocean
Southern Ocean
Spaarndam
Spaarndam gem. Haarlem
Spanbroek
Spanga
spanje
Spanje
Spankeren
Spannum
Spaubeek
Spier
Spierdijk
Spijk
Spijk Gn
Spijkenisse
Spijkerboor
Sprang-Capelle
Spratly Islands
spratly islands
Sprundel
Spui
sri lanka
Sri Lanka
Sri lanka
St. Willebrord
St.-Annaparochie
St.-Jacobiparochie
Stad aan 't Haringvliet
Stadskanaal
Stampersgat
Standdaarbuiten
Staphorst
Starnmeer
Startenhuizen
Stavenisse
Stavoren
Stedum
Steenbergen
Steendam
Steenderen
Steenenkamer
Steensel
Steenwijk
Steenwijkerwold
Stegeren
Steggerda
Stein
Stellendam
Sterksel
Stevensbeek
Stevensweert
Steyl
Stieltjeskanaal
Stiens
Stitswerd
Stokkum
Stolwijk
Stompetoren
Stoutenburg
Stoutenburg Noord
Stramproy
Streefkerk
Striep
Strijbeek
Strijen
Strijensas
Stroe
Stroobos
Stuifzand
Sumar
Surhuisterveen
Surhuizum
suriname
Suriname
Susteren
Suwâld
Svalbard
svalbard
Swalmen
Sweikhuizen
Swichum
Swifterbant
Swolgen
Syrie
syrie
syrië
Syrië
't Goy
't Haantje
't Harde
't Loo Oldebroek
't Veld
't Waar
't Zand
't Zandt
Taarlo
tadzjikistan
Tadzjikistan
Taiwan
taiwan
tanzania
Tanzania
Teeffelen
Teerns
Tegelen
Ten Boer
Ten Post
Ter Aar
Ter Aard
Ter Apel
Ter Apelkanaal
Ter Heijde
Ter Idzard
Terband
Terborg
Terheijden
Terherne
Terhole
Terkaple
Termunten
Termunterzijl
Ternaard
Terneuzen
Teroele
Terschuur
Tersoal
Terwispel
Terwolde
Teteringen
Teuge
thailand
Thailand
Thesinge
Tholen
Thorn
Tiel
Tiendeveen
Tienhoven
Tienray
Tijnje
Tilburg
Tilligte
Timor
timor
Tinallinge
Tinte
Tirns
Tjalhuizum
Tjalleberd
Tjerkgaast
Tjerkwerd
Tjuchem
Tobago
tobago
Togo
togo
tokelau
Tokelau
Tolbert
Toldijk
Tolkamer
Tollebeek
Tonden
Tonga
tonga
Toornwerd
Tricht
Triemen
trinidad
Trinidad
Tripscompagnie
Tsjaad
tsjaad
Tsjechie
tsjechie
Tsjechië
tsjechië
Tubbergen
Tuil
Tuitjenhorn
Tuk
Tull en 't Waal
Tunesie
tunesie
Tunesië
tunesië
turkije
Turkije
turkmenistan
Turkmenistan
Turks-en Caicoseilanden
Tuvalu
tuvalu
Twello
Twijzel
Twijzelerheide
Twisk
Tynaarlo
Tytsjerk
Tzum
Tzummarum
Ubbena
Ubbergen
Uddel
Uden
Udenhout
Uffelte
uganda
Uganda
Ugchelen
Uitdam
Uitgeest
Uithoorn
Uithuizen
Uithuizermeeden
Uitwellingerga
Uitwijk
UK
Ulestraten
Ulft
Ulicoten
Ulrum
Ulvenhout
Ulvenhout AC
Ureterp
Urk
Urmond
Ursem
Ursem gem. S
uruguay
Uruguay
USA
Usquert
Utrecht
Vaals
Vaassen
Valburg
Valkenburg
Valkenswaard
Valthe
Valthermond
vanuatu
Vanuatu
Varik
Varsselder
Varsseveld
Vasse
Veelerveen
Veen
Veendam
Veenendaal
Veenhuizen
Veeningen
Veenklooster
Veenoord
Veere
Veessen
Vegelinsoord
Veghel
Velddriel
Velden
Veldhoven
Velp
Velsen-Noord
Velsen-Zuid
Velserbroek
Venebrugge
venezuela
Venezuela
Venhorst
Venhuizen
Venlo
Venray
Ven-Zelderheide
Verenigd Koninkrijk
verenigd koninkrijk
Verenigde Arabische Emiraten
verenigde arabische emiraten
Verenigde Staten
verenigde staten
verenigde staten van amerika
Verenigde Staten van Amerika
Vessem
Vethuizen
Veulen
Vianen
Vianen NB
Vierakker
Vierhouten
Vierhuizen
Vierlingsbeek
Vierpolders
vietnam
Vietnam
Vijfhuizen
Vijlen
Vilsteren
Vinkega
Vinkel
Vinkenbuurt
Vinkeveen
Visvliet
Vlaardingen
Vlagtwedde
Vledder
Vledderveen
Vleuten
Vlieland
Vlierden
Vlijmen
Vlissingen
Vlist
Vlodrop
Voerendaal
Vogelenzang
Vogelwaarde
Volendam
Volkel
Vollenhove
Vondelingenplaat Rotterdam
Voorburg
Voorhout
Voorschoten
Voorst
Voorthuizen
Vorchten
Vorden
Vorstenbosch
Vortum-Mullem
Vragender
Vredenheim
Vredepeel
Vreeland
Vries
Vriescheloo
Vriezenveen
Vroomshoop
Vrouwenakker
Vrouwenparochie
Vrouwenpolder
VS
Vught
Vuren
Waaksens
Waal
Waalre
Waalwijk
Waarde
Waardenburg
Waarder
Waardhuizen
Waarland
Waaxens
Wachtum
Waddinxveen
Wadenoijen
Wagenberg
Wagenborgen
Wageningen
Wake Island
wake island
Walem
Wallis
wallis en futuna
Walsoorden
Wâlterswâld
Wamel
Wanneperveen
Wanroij
Wanssum
Wânswert
Wapenveld
Wapse
Wapserveen
Warder
Warffum
Warfhuizen
Warfstermolen
Warmenhuizen
Warmond
Warns
Warnsveld
Warstiens
Warten
Waskemeer
Waspik
Wassenaar
Wateren
Watergang
Waterhuizen
Wateringen
Waterlandkerkje
Waverveen
Wedde
Weerselo
Weert
Weesp
Wehe-den Hoorn
Wehl
Weidum
Weiteveen
Wekerom
Well
Well L
Wellerlooi
Welsum
Wemeldinge
Wenum Wiesel
Wereld
wereld
Wergea
Werkendam
Werkhoven
Wernhout
Wervershoof
Wesepe
Wessem
West Bank
west bank
Westbeemster
Westbroek
Westdorp
Westdorpe
Westelijke Sahara
westelijke sahara
Westendorp
Westerbeek
Westerbork
Westerbroek
Westeremden
Westergeest
Westerhaar-Vriezenveensewijk
Westerhoven
Westerland
Westerlee
Westernieland
Westervelde
Westervoort
Westerwijtwerd
West-Graftdijk
Westhem
Westhoek
Westkapelle
Westknollendam
Westmaas
West-Terschelling
Westwoud
Westzaan
Wetering
Weteringbrug
Wetsens
Wetsinge
Weurt
Wezep
Wezup
Wezuperbrug
Wichmond
Wier
Wierden
Wieringerwaard
Wieringerwerf
Wierum
Wijchen
Wijckel
Wijdenes
Wijdewormer
Wijhe
Wijk aan Zee
Wijk bij Duurstede
Wijk en Aalburg
Wijlre
Wijnaldum
Wijnandsrade
Wijnbergen
Wijngaarden
Wijnjewoude
Wijster
Wilbertoord
Wildervank
Wilhelminadorp
Wilhelminaoord
Willemsoord
Willemstad
Wilnis
Wilp
Wilsum
Winde
Windraak
Winkel
Winneweer
Winschoten
Winssen
Winsum
Wintelre
Winterswijk
Winterswijk Brinkheurne
Winterswijk Corle
Winterswijk Henxel
Winterswijk Huppel
Winterswijk Kotten
Winterswijk Meddo
Winterswijk Miste
Winterswijk Ratum
Winterswijk Woold
Wirdum
Wirdum Gn
Wissenkerke
Witharen
Witmarsum
Witte Paarden
Wittelte
Wittem
Witteveen
Wiuwert
Wjelsryp
Woensdrecht
Woerden
Woerdense Verlaat
Wognum
Woldendorp
Wolfheze
Wolphaartsdijk
Wolsum
Woltersum
Wolvega
Wommels
Wons
Workum
Wormer
Wormerveer
Woubrugge
Woudbloem
Woudenberg
Woudrichem
Woudsend
Wouw
Wouwse Plantage
Wyns
Wytgaard
Yde
Yerseke
Ypecolsga
Ysbrechtum
Ysselsteyn
Zaamslag
Zaandam
Zaandijk
Zalk
Zaltbommel
Zambia
zambia
Zandberg
Zandeweer
Zandhuizen
Zandpol
Zandvoort
Zeddam
Zeegse
Zeeland
Zeerijp
Zeewolde
Zegge
Zegveld
Zeijen
Zeijerveen
Zeijerveld
Zeist
Zelhem
Zenderen
Zennewijnen
Zetten
Zevenaar
Zevenbergen
Zevenbergschen Hoek
Zevenhoven
Zevenhuizen
Zierikzee
Zieuwent
Zijderveld
Zijdewind
Zijldijk
Zimbabwe
zimbabwe
Zoelen
Zoelmond
Zoetermeer
Zoeterwoude
Zonnemaire
Zorgvlied
Zoutelande
Zoutkamp
Zuid Afrika
zuid afrika
zuid korea
Zuid Korea
ZuidAfrika
Zuidafrika
Zuid-Afrika
zuid-afrika
Zuid-Beijerland
Zuidbroek
Zuiddorpe
Zuidermeer
Zuiderwoude
Zuidhorn
ZuidKorea
Zuidkorea
Zuid-Korea
zuid-korea
Zuidlaarderveen
Zuidland
Zuidlaren
Zuidoostbeemster
Zuid-Scharwoude
Zuidschermer
Zuidveen
Zuidveld
Zuidvelde
Zuidwolde
Zuidzande
Zuilichem
Zuna
Zundert
Zurich
Zutphen
Zuurdijk
Zwaag
Zwaagdijk-Oost
Zwaagdijk-West
Zwaanshoek
Zwagerbosch
Zwammerdam
Zwanenburg
Zwartebroek
Zwartemeer
Zwartewaal
Zwartsluis
zweden
Zweden
Zweeloo
Zweins
Zwiggelte
Zwijndrecht
Zwinderen
zwitserland
Zwitserland
Zwolle
Venserpolder
Loenermark
Oude Turfmarkt
Reigersbos
Gein
Flevo
Rhodos
Rivierstaete
Sri
U trecht
H'drecht
Holendrecht
A'dam
ANAE Plein
Bernouilliplein
Coev
Hardenber
Friesland
Ijsselm
Kenya
Nij
Paddepoel
rubenslaan
WINSCH
Scheemda
Coev
Hardenber
Frankrijk
Groningen
hapert
Leeuwarden
Meppel
Oostenrijk
Opende
Hanzeplein
Duitsland
Hoogezand
Halfweg
Antartica
CostaRica
Curacao
Kaap Verdische eilanden
Knokke
Osdorpplein
Parijs
Purmerend
Sjanghai
Sarphatipark
Watergraafsmeer